<?xml version="1.0" encoding="utf-8" standalone="no"?>
<!DOCTYPE svg PUBLIC "-//W3C//DTD SVG 1.1//EN"
  "http://www.w3.org/Graphics/SVG/1.1/DTD/svg11.dtd">
<svg height="864pt" version="1.1" viewBox="0 0 864 864" width="864pt" xmlns="http://www.w3.org/2000/svg" xmlns:xlink="http://www.w3.org/1999/xlink">
 <metadata>
  <rdf:RDF xmlns:cc="http://creativecommons.org/ns#" xmlns:dc="http://purl.org/dc/elements/1.1/" xmlns:rdf="http://www.w3.org/1999/02/22-rdf-syntax-ns#">
   <cc:Work>
    <dc:type rdf:resource="http://purl.org/dc/dcmitype/StillImage"/>
    <dc:date>2021-09-22T21:07:56.996562</dc:date>
    <dc:format>image/svg+xml</dc:format>
    <dc:creator>
     <cc:Agent>
      <dc:title>Matplotlib v3.4.1, https://matplotlib.org/</dc:title>
     </cc:Agent>
    </dc:creator>
   </cc:Work>
  </rdf:RDF>
 </metadata>
 <defs>
  <style type="text/css">*{stroke-linecap:butt;stroke-linejoin:round;}</style>
 </defs>
 <g id="figure_1">
  <g id="patch_1">
   <path d="M 0 864 
L 864 864 
L 864 0 
L 0 0 
z
" style="fill:none;"/>
  </g>
  <g id="axes_1">
   <g id="patch_2">
    <path d="M 108 756 
L 777.6 756 
L 777.6 103.68 
L 108 103.68 
z
" style="fill:#ffffff;"/>
   </g>
   <g id="matplotlib.axis_1">
    <g id="xtick_1">
     <g id="line2d_1">
      <path clip-path="url(#pc240bd013e)" d="M 138.436364 756 
L 138.436364 103.68 
" style="fill:none;stroke:#b0b0b0;stroke-linecap:square;stroke-width:0.8;"/>
     </g>
     <g id="line2d_2">
      <defs>
       <path d="M 0 0 
L 0 3.5 
" id="m06e106a089" style="stroke:#000000;stroke-width:0.8;"/>
      </defs>
      <g>
       <use style="stroke:#000000;stroke-width:0.8;" x="138.436364" xlink:href="#m06e106a089" y="756"/>
      </g>
     </g>
     <g id="text_1">
      <!-- 8 -->
      <g transform="translate(131.437614 779.716563)scale(0.22 -0.22)">
       <defs>
        <path d="M 2034 2216 
Q 1584 2216 1326 1975 
Q 1069 1734 1069 1313 
Q 1069 891 1326 650 
Q 1584 409 2034 409 
Q 2484 409 2743 651 
Q 3003 894 3003 1313 
Q 3003 1734 2745 1975 
Q 2488 2216 2034 2216 
z
M 1403 2484 
Q 997 2584 770 2862 
Q 544 3141 544 3541 
Q 544 4100 942 4425 
Q 1341 4750 2034 4750 
Q 2731 4750 3128 4425 
Q 3525 4100 3525 3541 
Q 3525 3141 3298 2862 
Q 3072 2584 2669 2484 
Q 3125 2378 3379 2068 
Q 3634 1759 3634 1313 
Q 3634 634 3220 271 
Q 2806 -91 2034 -91 
Q 1263 -91 848 271 
Q 434 634 434 1313 
Q 434 1759 690 2068 
Q 947 2378 1403 2484 
z
M 1172 3481 
Q 1172 3119 1398 2916 
Q 1625 2713 2034 2713 
Q 2441 2713 2670 2916 
Q 2900 3119 2900 3481 
Q 2900 3844 2670 4047 
Q 2441 4250 2034 4250 
Q 1625 4250 1398 4047 
Q 1172 3844 1172 3481 
z
" id="DejaVuSans-38" transform="scale(0.015625)"/>
       </defs>
       <use xlink:href="#DejaVuSans-38"/>
      </g>
     </g>
    </g>
    <g id="xtick_2">
     <g id="line2d_3">
      <path clip-path="url(#pc240bd013e)" d="M 214.527273 756 
L 214.527273 103.68 
" style="fill:none;stroke:#b0b0b0;stroke-linecap:square;stroke-width:0.8;"/>
     </g>
     <g id="line2d_4">
      <g>
       <use style="stroke:#000000;stroke-width:0.8;" x="214.527273" xlink:href="#m06e106a089" y="756"/>
      </g>
     </g>
     <g id="text_2">
      <!-- 16 -->
      <g transform="translate(200.529773 779.716563)scale(0.22 -0.22)">
       <defs>
        <path d="M 794 531 
L 1825 531 
L 1825 4091 
L 703 3866 
L 703 4441 
L 1819 4666 
L 2450 4666 
L 2450 531 
L 3481 531 
L 3481 0 
L 794 0 
L 794 531 
z
" id="DejaVuSans-31" transform="scale(0.015625)"/>
        <path d="M 2113 2584 
Q 1688 2584 1439 2293 
Q 1191 2003 1191 1497 
Q 1191 994 1439 701 
Q 1688 409 2113 409 
Q 2538 409 2786 701 
Q 3034 994 3034 1497 
Q 3034 2003 2786 2293 
Q 2538 2584 2113 2584 
z
M 3366 4563 
L 3366 3988 
Q 3128 4100 2886 4159 
Q 2644 4219 2406 4219 
Q 1781 4219 1451 3797 
Q 1122 3375 1075 2522 
Q 1259 2794 1537 2939 
Q 1816 3084 2150 3084 
Q 2853 3084 3261 2657 
Q 3669 2231 3669 1497 
Q 3669 778 3244 343 
Q 2819 -91 2113 -91 
Q 1303 -91 875 529 
Q 447 1150 447 2328 
Q 447 3434 972 4092 
Q 1497 4750 2381 4750 
Q 2619 4750 2861 4703 
Q 3103 4656 3366 4563 
z
" id="DejaVuSans-36" transform="scale(0.015625)"/>
       </defs>
       <use xlink:href="#DejaVuSans-31"/>
       <use x="63.623047" xlink:href="#DejaVuSans-36"/>
      </g>
     </g>
    </g>
    <g id="xtick_3">
     <g id="line2d_5">
      <path clip-path="url(#pc240bd013e)" d="M 290.618182 756 
L 290.618182 103.68 
" style="fill:none;stroke:#b0b0b0;stroke-linecap:square;stroke-width:0.8;"/>
     </g>
     <g id="line2d_6">
      <g>
       <use style="stroke:#000000;stroke-width:0.8;" x="290.618182" xlink:href="#m06e106a089" y="756"/>
      </g>
     </g>
     <g id="text_3">
      <!-- 32 -->
      <g transform="translate(276.620682 779.716563)scale(0.22 -0.22)">
       <defs>
        <path d="M 2597 2516 
Q 3050 2419 3304 2112 
Q 3559 1806 3559 1356 
Q 3559 666 3084 287 
Q 2609 -91 1734 -91 
Q 1441 -91 1130 -33 
Q 819 25 488 141 
L 488 750 
Q 750 597 1062 519 
Q 1375 441 1716 441 
Q 2309 441 2620 675 
Q 2931 909 2931 1356 
Q 2931 1769 2642 2001 
Q 2353 2234 1838 2234 
L 1294 2234 
L 1294 2753 
L 1863 2753 
Q 2328 2753 2575 2939 
Q 2822 3125 2822 3475 
Q 2822 3834 2567 4026 
Q 2313 4219 1838 4219 
Q 1578 4219 1281 4162 
Q 984 4106 628 3988 
L 628 4550 
Q 988 4650 1302 4700 
Q 1616 4750 1894 4750 
Q 2613 4750 3031 4423 
Q 3450 4097 3450 3541 
Q 3450 3153 3228 2886 
Q 3006 2619 2597 2516 
z
" id="DejaVuSans-33" transform="scale(0.015625)"/>
        <path d="M 1228 531 
L 3431 531 
L 3431 0 
L 469 0 
L 469 531 
Q 828 903 1448 1529 
Q 2069 2156 2228 2338 
Q 2531 2678 2651 2914 
Q 2772 3150 2772 3378 
Q 2772 3750 2511 3984 
Q 2250 4219 1831 4219 
Q 1534 4219 1204 4116 
Q 875 4013 500 3803 
L 500 4441 
Q 881 4594 1212 4672 
Q 1544 4750 1819 4750 
Q 2544 4750 2975 4387 
Q 3406 4025 3406 3419 
Q 3406 3131 3298 2873 
Q 3191 2616 2906 2266 
Q 2828 2175 2409 1742 
Q 1991 1309 1228 531 
z
" id="DejaVuSans-32" transform="scale(0.015625)"/>
       </defs>
       <use xlink:href="#DejaVuSans-33"/>
       <use x="63.623047" xlink:href="#DejaVuSans-32"/>
      </g>
     </g>
    </g>
    <g id="xtick_4">
     <g id="line2d_7">
      <path clip-path="url(#pc240bd013e)" d="M 366.709091 756 
L 366.709091 103.68 
" style="fill:none;stroke:#b0b0b0;stroke-linecap:square;stroke-width:0.8;"/>
     </g>
     <g id="line2d_8">
      <g>
       <use style="stroke:#000000;stroke-width:0.8;" x="366.709091" xlink:href="#m06e106a089" y="756"/>
      </g>
     </g>
     <g id="text_4">
      <!-- 64 -->
      <g transform="translate(352.711591 779.716563)scale(0.22 -0.22)">
       <defs>
        <path d="M 2419 4116 
L 825 1625 
L 2419 1625 
L 2419 4116 
z
M 2253 4666 
L 3047 4666 
L 3047 1625 
L 3713 1625 
L 3713 1100 
L 3047 1100 
L 3047 0 
L 2419 0 
L 2419 1100 
L 313 1100 
L 313 1709 
L 2253 4666 
z
" id="DejaVuSans-34" transform="scale(0.015625)"/>
       </defs>
       <use xlink:href="#DejaVuSans-36"/>
       <use x="63.623047" xlink:href="#DejaVuSans-34"/>
      </g>
     </g>
    </g>
    <g id="xtick_5">
     <g id="line2d_9">
      <path clip-path="url(#pc240bd013e)" d="M 442.8 756 
L 442.8 103.68 
" style="fill:none;stroke:#b0b0b0;stroke-linecap:square;stroke-width:0.8;"/>
     </g>
     <g id="line2d_10">
      <g>
       <use style="stroke:#000000;stroke-width:0.8;" x="442.8" xlink:href="#m06e106a089" y="756"/>
      </g>
     </g>
     <g id="text_5">
      <!-- 128 -->
      <g transform="translate(421.80375 779.716563)scale(0.22 -0.22)">
       <use xlink:href="#DejaVuSans-31"/>
       <use x="63.623047" xlink:href="#DejaVuSans-32"/>
       <use x="127.246094" xlink:href="#DejaVuSans-38"/>
      </g>
     </g>
    </g>
    <g id="xtick_6">
     <g id="line2d_11">
      <path clip-path="url(#pc240bd013e)" d="M 518.890909 756 
L 518.890909 103.68 
" style="fill:none;stroke:#b0b0b0;stroke-linecap:square;stroke-width:0.8;"/>
     </g>
     <g id="line2d_12">
      <g>
       <use style="stroke:#000000;stroke-width:0.8;" x="518.890909" xlink:href="#m06e106a089" y="756"/>
      </g>
     </g>
     <g id="text_6">
      <!-- 256 -->
      <g transform="translate(497.894659 779.716563)scale(0.22 -0.22)">
       <defs>
        <path d="M 691 4666 
L 3169 4666 
L 3169 4134 
L 1269 4134 
L 1269 2991 
Q 1406 3038 1543 3061 
Q 1681 3084 1819 3084 
Q 2600 3084 3056 2656 
Q 3513 2228 3513 1497 
Q 3513 744 3044 326 
Q 2575 -91 1722 -91 
Q 1428 -91 1123 -41 
Q 819 9 494 109 
L 494 744 
Q 775 591 1075 516 
Q 1375 441 1709 441 
Q 2250 441 2565 725 
Q 2881 1009 2881 1497 
Q 2881 1984 2565 2268 
Q 2250 2553 1709 2553 
Q 1456 2553 1204 2497 
Q 953 2441 691 2322 
L 691 4666 
z
" id="DejaVuSans-35" transform="scale(0.015625)"/>
       </defs>
       <use xlink:href="#DejaVuSans-32"/>
       <use x="63.623047" xlink:href="#DejaVuSans-35"/>
       <use x="127.246094" xlink:href="#DejaVuSans-36"/>
      </g>
     </g>
    </g>
    <g id="xtick_7">
     <g id="line2d_13">
      <path clip-path="url(#pc240bd013e)" d="M 594.981818 756 
L 594.981818 103.68 
" style="fill:none;stroke:#b0b0b0;stroke-linecap:square;stroke-width:0.8;"/>
     </g>
     <g id="line2d_14">
      <g>
       <use style="stroke:#000000;stroke-width:0.8;" x="594.981818" xlink:href="#m06e106a089" y="756"/>
      </g>
     </g>
     <g id="text_7">
      <!-- 512 -->
      <g transform="translate(573.985568 779.716563)scale(0.22 -0.22)">
       <use xlink:href="#DejaVuSans-35"/>
       <use x="63.623047" xlink:href="#DejaVuSans-31"/>
       <use x="127.246094" xlink:href="#DejaVuSans-32"/>
      </g>
     </g>
    </g>
    <g id="xtick_8">
     <g id="line2d_15">
      <path clip-path="url(#pc240bd013e)" d="M 671.072727 756 
L 671.072727 103.68 
" style="fill:none;stroke:#b0b0b0;stroke-linecap:square;stroke-width:0.8;"/>
     </g>
     <g id="line2d_16">
      <g>
       <use style="stroke:#000000;stroke-width:0.8;" x="671.072727" xlink:href="#m06e106a089" y="756"/>
      </g>
     </g>
     <g id="text_8">
      <!-- 1024 -->
      <g transform="translate(643.077727 779.716563)scale(0.22 -0.22)">
       <defs>
        <path d="M 2034 4250 
Q 1547 4250 1301 3770 
Q 1056 3291 1056 2328 
Q 1056 1369 1301 889 
Q 1547 409 2034 409 
Q 2525 409 2770 889 
Q 3016 1369 3016 2328 
Q 3016 3291 2770 3770 
Q 2525 4250 2034 4250 
z
M 2034 4750 
Q 2819 4750 3233 4129 
Q 3647 3509 3647 2328 
Q 3647 1150 3233 529 
Q 2819 -91 2034 -91 
Q 1250 -91 836 529 
Q 422 1150 422 2328 
Q 422 3509 836 4129 
Q 1250 4750 2034 4750 
z
" id="DejaVuSans-30" transform="scale(0.015625)"/>
       </defs>
       <use xlink:href="#DejaVuSans-31"/>
       <use x="63.623047" xlink:href="#DejaVuSans-30"/>
       <use x="127.246094" xlink:href="#DejaVuSans-32"/>
       <use x="190.869141" xlink:href="#DejaVuSans-34"/>
      </g>
     </g>
    </g>
    <g id="xtick_9">
     <g id="line2d_17">
      <path clip-path="url(#pc240bd013e)" d="M 747.163636 756 
L 747.163636 103.68 
" style="fill:none;stroke:#b0b0b0;stroke-linecap:square;stroke-width:0.8;"/>
     </g>
     <g id="line2d_18">
      <g>
       <use style="stroke:#000000;stroke-width:0.8;" x="747.163636" xlink:href="#m06e106a089" y="756"/>
      </g>
     </g>
     <g id="text_9">
      <!-- 2048 -->
      <g transform="translate(719.168636 779.716563)scale(0.22 -0.22)">
       <use xlink:href="#DejaVuSans-32"/>
       <use x="63.623047" xlink:href="#DejaVuSans-30"/>
       <use x="127.246094" xlink:href="#DejaVuSans-34"/>
       <use x="190.869141" xlink:href="#DejaVuSans-38"/>
      </g>
     </g>
    </g>
    <g id="text_10">
     <!-- Matrix shape -->
     <g transform="translate(371.477031 805.008438)scale(0.22 -0.22)">
      <defs>
       <path d="M 628 4666 
L 1569 4666 
L 2759 1491 
L 3956 4666 
L 4897 4666 
L 4897 0 
L 4281 0 
L 4281 4097 
L 3078 897 
L 2444 897 
L 1241 4097 
L 1241 0 
L 628 0 
L 628 4666 
z
" id="DejaVuSans-4d" transform="scale(0.015625)"/>
       <path d="M 2194 1759 
Q 1497 1759 1228 1600 
Q 959 1441 959 1056 
Q 959 750 1161 570 
Q 1363 391 1709 391 
Q 2188 391 2477 730 
Q 2766 1069 2766 1631 
L 2766 1759 
L 2194 1759 
z
M 3341 1997 
L 3341 0 
L 2766 0 
L 2766 531 
Q 2569 213 2275 61 
Q 1981 -91 1556 -91 
Q 1019 -91 701 211 
Q 384 513 384 1019 
Q 384 1609 779 1909 
Q 1175 2209 1959 2209 
L 2766 2209 
L 2766 2266 
Q 2766 2663 2505 2880 
Q 2244 3097 1772 3097 
Q 1472 3097 1187 3025 
Q 903 2953 641 2809 
L 641 3341 
Q 956 3463 1253 3523 
Q 1550 3584 1831 3584 
Q 2591 3584 2966 3190 
Q 3341 2797 3341 1997 
z
" id="DejaVuSans-61" transform="scale(0.015625)"/>
       <path d="M 1172 4494 
L 1172 3500 
L 2356 3500 
L 2356 3053 
L 1172 3053 
L 1172 1153 
Q 1172 725 1289 603 
Q 1406 481 1766 481 
L 2356 481 
L 2356 0 
L 1766 0 
Q 1100 0 847 248 
Q 594 497 594 1153 
L 594 3053 
L 172 3053 
L 172 3500 
L 594 3500 
L 594 4494 
L 1172 4494 
z
" id="DejaVuSans-74" transform="scale(0.015625)"/>
       <path d="M 2631 2963 
Q 2534 3019 2420 3045 
Q 2306 3072 2169 3072 
Q 1681 3072 1420 2755 
Q 1159 2438 1159 1844 
L 1159 0 
L 581 0 
L 581 3500 
L 1159 3500 
L 1159 2956 
Q 1341 3275 1631 3429 
Q 1922 3584 2338 3584 
Q 2397 3584 2469 3576 
Q 2541 3569 2628 3553 
L 2631 2963 
z
" id="DejaVuSans-72" transform="scale(0.015625)"/>
       <path d="M 603 3500 
L 1178 3500 
L 1178 0 
L 603 0 
L 603 3500 
z
M 603 4863 
L 1178 4863 
L 1178 4134 
L 603 4134 
L 603 4863 
z
" id="DejaVuSans-69" transform="scale(0.015625)"/>
       <path d="M 3513 3500 
L 2247 1797 
L 3578 0 
L 2900 0 
L 1881 1375 
L 863 0 
L 184 0 
L 1544 1831 
L 300 3500 
L 978 3500 
L 1906 2253 
L 2834 3500 
L 3513 3500 
z
" id="DejaVuSans-78" transform="scale(0.015625)"/>
       <path id="DejaVuSans-20" transform="scale(0.015625)"/>
       <path d="M 2834 3397 
L 2834 2853 
Q 2591 2978 2328 3040 
Q 2066 3103 1784 3103 
Q 1356 3103 1142 2972 
Q 928 2841 928 2578 
Q 928 2378 1081 2264 
Q 1234 2150 1697 2047 
L 1894 2003 
Q 2506 1872 2764 1633 
Q 3022 1394 3022 966 
Q 3022 478 2636 193 
Q 2250 -91 1575 -91 
Q 1294 -91 989 -36 
Q 684 19 347 128 
L 347 722 
Q 666 556 975 473 
Q 1284 391 1588 391 
Q 1994 391 2212 530 
Q 2431 669 2431 922 
Q 2431 1156 2273 1281 
Q 2116 1406 1581 1522 
L 1381 1569 
Q 847 1681 609 1914 
Q 372 2147 372 2553 
Q 372 3047 722 3315 
Q 1072 3584 1716 3584 
Q 2034 3584 2315 3537 
Q 2597 3491 2834 3397 
z
" id="DejaVuSans-73" transform="scale(0.015625)"/>
       <path d="M 3513 2113 
L 3513 0 
L 2938 0 
L 2938 2094 
Q 2938 2591 2744 2837 
Q 2550 3084 2163 3084 
Q 1697 3084 1428 2787 
Q 1159 2491 1159 1978 
L 1159 0 
L 581 0 
L 581 4863 
L 1159 4863 
L 1159 2956 
Q 1366 3272 1645 3428 
Q 1925 3584 2291 3584 
Q 2894 3584 3203 3211 
Q 3513 2838 3513 2113 
z
" id="DejaVuSans-68" transform="scale(0.015625)"/>
       <path d="M 1159 525 
L 1159 -1331 
L 581 -1331 
L 581 3500 
L 1159 3500 
L 1159 2969 
Q 1341 3281 1617 3432 
Q 1894 3584 2278 3584 
Q 2916 3584 3314 3078 
Q 3713 2572 3713 1747 
Q 3713 922 3314 415 
Q 2916 -91 2278 -91 
Q 1894 -91 1617 61 
Q 1341 213 1159 525 
z
M 3116 1747 
Q 3116 2381 2855 2742 
Q 2594 3103 2138 3103 
Q 1681 3103 1420 2742 
Q 1159 2381 1159 1747 
Q 1159 1113 1420 752 
Q 1681 391 2138 391 
Q 2594 391 2855 752 
Q 3116 1113 3116 1747 
z
" id="DejaVuSans-70" transform="scale(0.015625)"/>
       <path d="M 3597 1894 
L 3597 1613 
L 953 1613 
Q 991 1019 1311 708 
Q 1631 397 2203 397 
Q 2534 397 2845 478 
Q 3156 559 3463 722 
L 3463 178 
Q 3153 47 2828 -22 
Q 2503 -91 2169 -91 
Q 1331 -91 842 396 
Q 353 884 353 1716 
Q 353 2575 817 3079 
Q 1281 3584 2069 3584 
Q 2775 3584 3186 3129 
Q 3597 2675 3597 1894 
z
M 3022 2063 
Q 3016 2534 2758 2815 
Q 2500 3097 2075 3097 
Q 1594 3097 1305 2825 
Q 1016 2553 972 2059 
L 3022 2063 
z
" id="DejaVuSans-65" transform="scale(0.015625)"/>
      </defs>
      <use xlink:href="#DejaVuSans-4d"/>
      <use x="86.279297" xlink:href="#DejaVuSans-61"/>
      <use x="147.558594" xlink:href="#DejaVuSans-74"/>
      <use x="186.767578" xlink:href="#DejaVuSans-72"/>
      <use x="227.880859" xlink:href="#DejaVuSans-69"/>
      <use x="255.664062" xlink:href="#DejaVuSans-78"/>
      <use x="314.84375" xlink:href="#DejaVuSans-20"/>
      <use x="346.630859" xlink:href="#DejaVuSans-73"/>
      <use x="398.730469" xlink:href="#DejaVuSans-68"/>
      <use x="462.109375" xlink:href="#DejaVuSans-61"/>
      <use x="523.388672" xlink:href="#DejaVuSans-70"/>
      <use x="586.865234" xlink:href="#DejaVuSans-65"/>
     </g>
    </g>
   </g>
   <g id="matplotlib.axis_2">
    <g id="ytick_1">
     <g id="line2d_19">
      <path clip-path="url(#pc240bd013e)" d="M 108 726.3491 
L 777.6 726.3491 
" style="fill:none;stroke:#b0b0b0;stroke-linecap:square;stroke-width:0.8;"/>
     </g>
     <g id="line2d_20">
      <defs>
       <path d="M 0 0 
L -3.5 0 
" id="meb209c825d" style="stroke:#000000;stroke-width:0.8;"/>
      </defs>
      <g>
       <use style="stroke:#000000;stroke-width:0.8;" x="108" xlink:href="#meb209c825d" y="726.3491"/>
      </g>
     </g>
     <g id="text_11">
      <!-- 0 -->
      <g transform="translate(87.0025 734.707382)scale(0.22 -0.22)">
       <use xlink:href="#DejaVuSans-30"/>
      </g>
     </g>
    </g>
    <g id="ytick_2">
     <g id="line2d_21">
      <path clip-path="url(#pc240bd013e)" d="M 108 631.612891 
L 777.6 631.612891 
" style="fill:none;stroke:#b0b0b0;stroke-linecap:square;stroke-width:0.8;"/>
     </g>
     <g id="line2d_22">
      <g>
       <use style="stroke:#000000;stroke-width:0.8;" x="108" xlink:href="#meb209c825d" y="631.612891"/>
      </g>
     </g>
     <g id="text_12">
      <!-- 20000 -->
      <g transform="translate(31.0125 639.971172)scale(0.22 -0.22)">
       <use xlink:href="#DejaVuSans-32"/>
       <use x="63.623047" xlink:href="#DejaVuSans-30"/>
       <use x="127.246094" xlink:href="#DejaVuSans-30"/>
       <use x="190.869141" xlink:href="#DejaVuSans-30"/>
       <use x="254.492188" xlink:href="#DejaVuSans-30"/>
      </g>
     </g>
    </g>
    <g id="ytick_3">
     <g id="line2d_23">
      <path clip-path="url(#pc240bd013e)" d="M 108 536.876681 
L 777.6 536.876681 
" style="fill:none;stroke:#b0b0b0;stroke-linecap:square;stroke-width:0.8;"/>
     </g>
     <g id="line2d_24">
      <g>
       <use style="stroke:#000000;stroke-width:0.8;" x="108" xlink:href="#meb209c825d" y="536.876681"/>
      </g>
     </g>
     <g id="text_13">
      <!-- 40000 -->
      <g transform="translate(31.0125 545.234962)scale(0.22 -0.22)">
       <use xlink:href="#DejaVuSans-34"/>
       <use x="63.623047" xlink:href="#DejaVuSans-30"/>
       <use x="127.246094" xlink:href="#DejaVuSans-30"/>
       <use x="190.869141" xlink:href="#DejaVuSans-30"/>
       <use x="254.492188" xlink:href="#DejaVuSans-30"/>
      </g>
     </g>
    </g>
    <g id="ytick_4">
     <g id="line2d_25">
      <path clip-path="url(#pc240bd013e)" d="M 108 442.140471 
L 777.6 442.140471 
" style="fill:none;stroke:#b0b0b0;stroke-linecap:square;stroke-width:0.8;"/>
     </g>
     <g id="line2d_26">
      <g>
       <use style="stroke:#000000;stroke-width:0.8;" x="108" xlink:href="#meb209c825d" y="442.140471"/>
      </g>
     </g>
     <g id="text_14">
      <!-- 60000 -->
      <g transform="translate(31.0125 450.498753)scale(0.22 -0.22)">
       <use xlink:href="#DejaVuSans-36"/>
       <use x="63.623047" xlink:href="#DejaVuSans-30"/>
       <use x="127.246094" xlink:href="#DejaVuSans-30"/>
       <use x="190.869141" xlink:href="#DejaVuSans-30"/>
       <use x="254.492188" xlink:href="#DejaVuSans-30"/>
      </g>
     </g>
    </g>
    <g id="ytick_5">
     <g id="line2d_27">
      <path clip-path="url(#pc240bd013e)" d="M 108 347.404262 
L 777.6 347.404262 
" style="fill:none;stroke:#b0b0b0;stroke-linecap:square;stroke-width:0.8;"/>
     </g>
     <g id="line2d_28">
      <g>
       <use style="stroke:#000000;stroke-width:0.8;" x="108" xlink:href="#meb209c825d" y="347.404262"/>
      </g>
     </g>
     <g id="text_15">
      <!-- 80000 -->
      <g transform="translate(31.0125 355.762543)scale(0.22 -0.22)">
       <use xlink:href="#DejaVuSans-38"/>
       <use x="63.623047" xlink:href="#DejaVuSans-30"/>
       <use x="127.246094" xlink:href="#DejaVuSans-30"/>
       <use x="190.869141" xlink:href="#DejaVuSans-30"/>
       <use x="254.492188" xlink:href="#DejaVuSans-30"/>
      </g>
     </g>
    </g>
    <g id="ytick_6">
     <g id="line2d_29">
      <path clip-path="url(#pc240bd013e)" d="M 108 252.668052 
L 777.6 252.668052 
" style="fill:none;stroke:#b0b0b0;stroke-linecap:square;stroke-width:0.8;"/>
     </g>
     <g id="line2d_30">
      <g>
       <use style="stroke:#000000;stroke-width:0.8;" x="108" xlink:href="#meb209c825d" y="252.668052"/>
      </g>
     </g>
     <g id="text_16">
      <!-- 100000 -->
      <g transform="translate(17.015 261.026333)scale(0.22 -0.22)">
       <use xlink:href="#DejaVuSans-31"/>
       <use x="63.623047" xlink:href="#DejaVuSans-30"/>
       <use x="127.246094" xlink:href="#DejaVuSans-30"/>
       <use x="190.869141" xlink:href="#DejaVuSans-30"/>
       <use x="254.492188" xlink:href="#DejaVuSans-30"/>
       <use x="318.115234" xlink:href="#DejaVuSans-30"/>
      </g>
     </g>
    </g>
    <g id="ytick_7">
     <g id="line2d_31">
      <path clip-path="url(#pc240bd013e)" d="M 108 157.931842 
L 777.6 157.931842 
" style="fill:none;stroke:#b0b0b0;stroke-linecap:square;stroke-width:0.8;"/>
     </g>
     <g id="line2d_32">
      <g>
       <use style="stroke:#000000;stroke-width:0.8;" x="108" xlink:href="#meb209c825d" y="157.931842"/>
      </g>
     </g>
     <g id="text_17">
      <!-- 120000 -->
      <g transform="translate(17.015 166.290123)scale(0.22 -0.22)">
       <use xlink:href="#DejaVuSans-31"/>
       <use x="63.623047" xlink:href="#DejaVuSans-32"/>
       <use x="127.246094" xlink:href="#DejaVuSans-30"/>
       <use x="190.869141" xlink:href="#DejaVuSans-30"/>
       <use x="254.492188" xlink:href="#DejaVuSans-30"/>
       <use x="318.115234" xlink:href="#DejaVuSans-30"/>
      </g>
     </g>
    </g>
    <g id="text_18">
     <!-- Time (ms.) -->
     <g transform="translate(8.439687 488.774219)rotate(-90)scale(0.22 -0.22)">
      <defs>
       <path d="M -19 4666 
L 3928 4666 
L 3928 4134 
L 2272 4134 
L 2272 0 
L 1638 0 
L 1638 4134 
L -19 4134 
L -19 4666 
z
" id="DejaVuSans-54" transform="scale(0.015625)"/>
       <path d="M 3328 2828 
Q 3544 3216 3844 3400 
Q 4144 3584 4550 3584 
Q 5097 3584 5394 3201 
Q 5691 2819 5691 2113 
L 5691 0 
L 5113 0 
L 5113 2094 
Q 5113 2597 4934 2840 
Q 4756 3084 4391 3084 
Q 3944 3084 3684 2787 
Q 3425 2491 3425 1978 
L 3425 0 
L 2847 0 
L 2847 2094 
Q 2847 2600 2669 2842 
Q 2491 3084 2119 3084 
Q 1678 3084 1418 2786 
Q 1159 2488 1159 1978 
L 1159 0 
L 581 0 
L 581 3500 
L 1159 3500 
L 1159 2956 
Q 1356 3278 1631 3431 
Q 1906 3584 2284 3584 
Q 2666 3584 2933 3390 
Q 3200 3197 3328 2828 
z
" id="DejaVuSans-6d" transform="scale(0.015625)"/>
       <path d="M 1984 4856 
Q 1566 4138 1362 3434 
Q 1159 2731 1159 2009 
Q 1159 1288 1364 580 
Q 1569 -128 1984 -844 
L 1484 -844 
Q 1016 -109 783 600 
Q 550 1309 550 2009 
Q 550 2706 781 3412 
Q 1013 4119 1484 4856 
L 1984 4856 
z
" id="DejaVuSans-28" transform="scale(0.015625)"/>
       <path d="M 684 794 
L 1344 794 
L 1344 0 
L 684 0 
L 684 794 
z
" id="DejaVuSans-2e" transform="scale(0.015625)"/>
       <path d="M 513 4856 
L 1013 4856 
Q 1481 4119 1714 3412 
Q 1947 2706 1947 2009 
Q 1947 1309 1714 600 
Q 1481 -109 1013 -844 
L 513 -844 
Q 928 -128 1133 580 
Q 1338 1288 1338 2009 
Q 1338 2731 1133 3434 
Q 928 4138 513 4856 
z
" id="DejaVuSans-29" transform="scale(0.015625)"/>
      </defs>
      <use xlink:href="#DejaVuSans-54"/>
      <use x="57.958984" xlink:href="#DejaVuSans-69"/>
      <use x="85.742188" xlink:href="#DejaVuSans-6d"/>
      <use x="183.154297" xlink:href="#DejaVuSans-65"/>
      <use x="244.677734" xlink:href="#DejaVuSans-20"/>
      <use x="276.464844" xlink:href="#DejaVuSans-28"/>
      <use x="315.478516" xlink:href="#DejaVuSans-6d"/>
      <use x="412.890625" xlink:href="#DejaVuSans-73"/>
      <use x="464.990234" xlink:href="#DejaVuSans-2e"/>
      <use x="496.777344" xlink:href="#DejaVuSans-29"/>
     </g>
    </g>
   </g>
   <g id="line2d_33">
    <path clip-path="url(#pc240bd013e)" d="M 138.436364 726.349091 
L 214.527273 726.349086 
L 290.618182 726.349081 
L 366.709091 726.349062 
L 442.8 726.345808 
L 518.890909 726.34586 
L 594.981818 726.335975 
L 671.072727 726.295807 
L 747.163636 726.138374 
" style="fill:none;stroke:#1f77b4;stroke-linecap:square;stroke-width:1.5;"/>
    <defs>
     <path d="M 0 3 
C 0.795609 3 1.55874 2.683901 2.12132 2.12132 
C 2.683901 1.55874 3 0.795609 3 0 
C 3 -0.795609 2.683901 -1.55874 2.12132 -2.12132 
C 1.55874 -2.683901 0.795609 -3 0 -3 
C -0.795609 -3 -1.55874 -2.683901 -2.12132 -2.12132 
C -2.683901 -1.55874 -3 -0.795609 -3 0 
C -3 0.795609 -2.683901 1.55874 -2.12132 2.12132 
C -1.55874 2.683901 -0.795609 3 0 3 
z
" id="m0368bc38af" style="stroke:#1f77b4;"/>
    </defs>
    <g clip-path="url(#pc240bd013e)">
     <use style="fill:#1f77b4;stroke:#1f77b4;" x="138.436364" xlink:href="#m0368bc38af" y="726.349091"/>
     <use style="fill:#1f77b4;stroke:#1f77b4;" x="214.527273" xlink:href="#m0368bc38af" y="726.349086"/>
     <use style="fill:#1f77b4;stroke:#1f77b4;" x="290.618182" xlink:href="#m0368bc38af" y="726.349081"/>
     <use style="fill:#1f77b4;stroke:#1f77b4;" x="366.709091" xlink:href="#m0368bc38af" y="726.349062"/>
     <use style="fill:#1f77b4;stroke:#1f77b4;" x="442.8" xlink:href="#m0368bc38af" y="726.345808"/>
     <use style="fill:#1f77b4;stroke:#1f77b4;" x="518.890909" xlink:href="#m0368bc38af" y="726.34586"/>
     <use style="fill:#1f77b4;stroke:#1f77b4;" x="594.981818" xlink:href="#m0368bc38af" y="726.335975"/>
     <use style="fill:#1f77b4;stroke:#1f77b4;" x="671.072727" xlink:href="#m0368bc38af" y="726.295807"/>
     <use style="fill:#1f77b4;stroke:#1f77b4;" x="747.163636" xlink:href="#m0368bc38af" y="726.138374"/>
    </g>
   </g>
   <g id="line2d_34">
    <path clip-path="url(#pc240bd013e)" d="M 138.436364 726.348721 
L 214.527273 726.34866 
L 290.618182 726.348731 
L 366.709091 726.348702 
L 442.8 726.348058 
L 518.890909 726.343213 
L 594.981818 726.339248 
L 671.072727 726.330925 
L 747.163636 726.286371 
" style="fill:none;stroke:#ff7f0e;stroke-linecap:square;stroke-width:1.5;"/>
    <defs>
     <path d="M 0 3 
C 0.795609 3 1.55874 2.683901 2.12132 2.12132 
C 2.683901 1.55874 3 0.795609 3 0 
C 3 -0.795609 2.683901 -1.55874 2.12132 -2.12132 
C 1.55874 -2.683901 0.795609 -3 0 -3 
C -0.795609 -3 -1.55874 -2.683901 -2.12132 -2.12132 
C -2.683901 -1.55874 -3 -0.795609 -3 0 
C -3 0.795609 -2.683901 1.55874 -2.12132 2.12132 
C -1.55874 2.683901 -0.795609 3 0 3 
z
" id="m831e2f245b" style="stroke:#ff7f0e;"/>
    </defs>
    <g clip-path="url(#pc240bd013e)">
     <use style="fill:#ff7f0e;stroke:#ff7f0e;" x="138.436364" xlink:href="#m831e2f245b" y="726.348721"/>
     <use style="fill:#ff7f0e;stroke:#ff7f0e;" x="214.527273" xlink:href="#m831e2f245b" y="726.34866"/>
     <use style="fill:#ff7f0e;stroke:#ff7f0e;" x="290.618182" xlink:href="#m831e2f245b" y="726.348731"/>
     <use style="fill:#ff7f0e;stroke:#ff7f0e;" x="366.709091" xlink:href="#m831e2f245b" y="726.348702"/>
     <use style="fill:#ff7f0e;stroke:#ff7f0e;" x="442.8" xlink:href="#m831e2f245b" y="726.348058"/>
     <use style="fill:#ff7f0e;stroke:#ff7f0e;" x="518.890909" xlink:href="#m831e2f245b" y="726.343213"/>
     <use style="fill:#ff7f0e;stroke:#ff7f0e;" x="594.981818" xlink:href="#m831e2f245b" y="726.339248"/>
     <use style="fill:#ff7f0e;stroke:#ff7f0e;" x="671.072727" xlink:href="#m831e2f245b" y="726.330925"/>
     <use style="fill:#ff7f0e;stroke:#ff7f0e;" x="747.163636" xlink:href="#m831e2f245b" y="726.286371"/>
    </g>
   </g>
   <g id="line2d_35">
    <path clip-path="url(#pc240bd013e)" d="M 138.436364 726.346481 
L 214.527273 726.346576 
L 290.618182 726.346415 
L 366.709091 726.346666 
L 442.8 726.345595 
L 518.890909 726.345903 
L 594.981818 726.343222 
L 671.072727 726.329807 
L 747.163636 726.252711 
" style="fill:none;stroke:#2ca02c;stroke-linecap:square;stroke-width:1.5;"/>
    <defs>
     <path d="M 0 3 
C 0.795609 3 1.55874 2.683901 2.12132 2.12132 
C 2.683901 1.55874 3 0.795609 3 0 
C 3 -0.795609 2.683901 -1.55874 2.12132 -2.12132 
C 1.55874 -2.683901 0.795609 -3 0 -3 
C -0.795609 -3 -1.55874 -2.683901 -2.12132 -2.12132 
C -2.683901 -1.55874 -3 -0.795609 -3 0 
C -3 0.795609 -2.683901 1.55874 -2.12132 2.12132 
C -1.55874 2.683901 -0.795609 3 0 3 
z
" id="m0ebde20ccc" style="stroke:#2ca02c;"/>
    </defs>
    <g clip-path="url(#pc240bd013e)">
     <use style="fill:#2ca02c;stroke:#2ca02c;" x="138.436364" xlink:href="#m0ebde20ccc" y="726.346481"/>
     <use style="fill:#2ca02c;stroke:#2ca02c;" x="214.527273" xlink:href="#m0ebde20ccc" y="726.346576"/>
     <use style="fill:#2ca02c;stroke:#2ca02c;" x="290.618182" xlink:href="#m0ebde20ccc" y="726.346415"/>
     <use style="fill:#2ca02c;stroke:#2ca02c;" x="366.709091" xlink:href="#m0ebde20ccc" y="726.346666"/>
     <use style="fill:#2ca02c;stroke:#2ca02c;" x="442.8" xlink:href="#m0ebde20ccc" y="726.345595"/>
     <use style="fill:#2ca02c;stroke:#2ca02c;" x="518.890909" xlink:href="#m0ebde20ccc" y="726.345903"/>
     <use style="fill:#2ca02c;stroke:#2ca02c;" x="594.981818" xlink:href="#m0ebde20ccc" y="726.343222"/>
     <use style="fill:#2ca02c;stroke:#2ca02c;" x="671.072727" xlink:href="#m0ebde20ccc" y="726.329807"/>
     <use style="fill:#2ca02c;stroke:#2ca02c;" x="747.163636" xlink:href="#m0ebde20ccc" y="726.252711"/>
    </g>
   </g>
   <g id="line2d_36">
    <path clip-path="url(#pc240bd013e)" d="M 138.436364 726.348267 
L 214.527273 726.348196 
L 290.618182 726.348243 
L 366.709091 726.348181 
L 442.8 726.347821 
L 518.890909 726.347263 
L 594.981818 726.342772 
L 671.072727 726.33453 
L 747.163636 726.298786 
" style="fill:none;stroke:#d62728;stroke-linecap:square;stroke-width:1.5;"/>
    <defs>
     <path d="M 0 3 
C 0.795609 3 1.55874 2.683901 2.12132 2.12132 
C 2.683901 1.55874 3 0.795609 3 0 
C 3 -0.795609 2.683901 -1.55874 2.12132 -2.12132 
C 1.55874 -2.683901 0.795609 -3 0 -3 
C -0.795609 -3 -1.55874 -2.683901 -2.12132 -2.12132 
C -2.683901 -1.55874 -3 -0.795609 -3 0 
C -3 0.795609 -2.683901 1.55874 -2.12132 2.12132 
C -1.55874 2.683901 -0.795609 3 0 3 
z
" id="mf1a63f3493" style="stroke:#d62728;"/>
    </defs>
    <g clip-path="url(#pc240bd013e)">
     <use style="fill:#d62728;stroke:#d62728;" x="138.436364" xlink:href="#mf1a63f3493" y="726.348267"/>
     <use style="fill:#d62728;stroke:#d62728;" x="214.527273" xlink:href="#mf1a63f3493" y="726.348196"/>
     <use style="fill:#d62728;stroke:#d62728;" x="290.618182" xlink:href="#mf1a63f3493" y="726.348243"/>
     <use style="fill:#d62728;stroke:#d62728;" x="366.709091" xlink:href="#mf1a63f3493" y="726.348181"/>
     <use style="fill:#d62728;stroke:#d62728;" x="442.8" xlink:href="#mf1a63f3493" y="726.347821"/>
     <use style="fill:#d62728;stroke:#d62728;" x="518.890909" xlink:href="#mf1a63f3493" y="726.347263"/>
     <use style="fill:#d62728;stroke:#d62728;" x="594.981818" xlink:href="#mf1a63f3493" y="726.342772"/>
     <use style="fill:#d62728;stroke:#d62728;" x="671.072727" xlink:href="#mf1a63f3493" y="726.33453"/>
     <use style="fill:#d62728;stroke:#d62728;" x="747.163636" xlink:href="#mf1a63f3493" y="726.298786"/>
    </g>
   </g>
   <g id="line2d_37">
    <path clip-path="url(#pc240bd013e)" d="M 138.436364 726.348968 
L 214.527273 726.348954 
L 290.618182 726.348954 
L 366.709091 726.34893 
L 442.8 726.348783 
L 518.890909 726.348248 
L 594.981818 726.346211 
L 671.072727 726.340797 
L 747.163636 726.3168 
" style="fill:none;stroke:#9467bd;stroke-linecap:square;stroke-width:1.5;"/>
    <defs>
     <path d="M 0 3 
C 0.795609 3 1.55874 2.683901 2.12132 2.12132 
C 2.683901 1.55874 3 0.795609 3 0 
C 3 -0.795609 2.683901 -1.55874 2.12132 -2.12132 
C 1.55874 -2.683901 0.795609 -3 0 -3 
C -0.795609 -3 -1.55874 -2.683901 -2.12132 -2.12132 
C -2.683901 -1.55874 -3 -0.795609 -3 0 
C -3 0.795609 -2.683901 1.55874 -2.12132 2.12132 
C -1.55874 2.683901 -0.795609 3 0 3 
z
" id="m9907df8ffa" style="stroke:#9467bd;"/>
    </defs>
    <g clip-path="url(#pc240bd013e)">
     <use style="fill:#9467bd;stroke:#9467bd;" x="138.436364" xlink:href="#m9907df8ffa" y="726.348968"/>
     <use style="fill:#9467bd;stroke:#9467bd;" x="214.527273" xlink:href="#m9907df8ffa" y="726.348954"/>
     <use style="fill:#9467bd;stroke:#9467bd;" x="290.618182" xlink:href="#m9907df8ffa" y="726.348954"/>
     <use style="fill:#9467bd;stroke:#9467bd;" x="366.709091" xlink:href="#m9907df8ffa" y="726.34893"/>
     <use style="fill:#9467bd;stroke:#9467bd;" x="442.8" xlink:href="#m9907df8ffa" y="726.348783"/>
     <use style="fill:#9467bd;stroke:#9467bd;" x="518.890909" xlink:href="#m9907df8ffa" y="726.348248"/>
     <use style="fill:#9467bd;stroke:#9467bd;" x="594.981818" xlink:href="#m9907df8ffa" y="726.346211"/>
     <use style="fill:#9467bd;stroke:#9467bd;" x="671.072727" xlink:href="#m9907df8ffa" y="726.340797"/>
     <use style="fill:#9467bd;stroke:#9467bd;" x="747.163636" xlink:href="#m9907df8ffa" y="726.3168"/>
    </g>
   </g>
   <g id="line2d_38">
    <path clip-path="url(#pc240bd013e)" d="M 138.436364 724.986931 
L 214.527273 724.9596 
L 290.618182 724.902597 
L 366.709091 724.629477 
L 442.8 722.693798 
L 518.890909 706.355402 
L 594.981818 573.869864 
" style="fill:none;stroke:#8c564b;stroke-linecap:square;stroke-width:1.5;"/>
    <defs>
     <path d="M 0 3 
C 0.795609 3 1.55874 2.683901 2.12132 2.12132 
C 2.683901 1.55874 3 0.795609 3 0 
C 3 -0.795609 2.683901 -1.55874 2.12132 -2.12132 
C 1.55874 -2.683901 0.795609 -3 0 -3 
C -0.795609 -3 -1.55874 -2.683901 -2.12132 -2.12132 
C -2.683901 -1.55874 -3 -0.795609 -3 0 
C -3 0.795609 -2.683901 1.55874 -2.12132 2.12132 
C -1.55874 2.683901 -0.795609 3 0 3 
z
" id="m957cc20f65" style="stroke:#8c564b;"/>
    </defs>
    <g clip-path="url(#pc240bd013e)">
     <use style="fill:#8c564b;stroke:#8c564b;" x="138.436364" xlink:href="#m957cc20f65" y="724.986931"/>
     <use style="fill:#8c564b;stroke:#8c564b;" x="214.527273" xlink:href="#m957cc20f65" y="724.9596"/>
     <use style="fill:#8c564b;stroke:#8c564b;" x="290.618182" xlink:href="#m957cc20f65" y="724.902597"/>
     <use style="fill:#8c564b;stroke:#8c564b;" x="366.709091" xlink:href="#m957cc20f65" y="724.629477"/>
     <use style="fill:#8c564b;stroke:#8c564b;" x="442.8" xlink:href="#m957cc20f65" y="722.693798"/>
     <use style="fill:#8c564b;stroke:#8c564b;" x="518.890909" xlink:href="#m957cc20f65" y="706.355402"/>
     <use style="fill:#8c564b;stroke:#8c564b;" x="594.981818" xlink:href="#m957cc20f65" y="573.869864"/>
    </g>
   </g>
   <g id="line2d_39">
    <path clip-path="url(#pc240bd013e)" d="M 138.436364 726.346888 
L 214.527273 726.297289 
L 290.618182 726.161291 
L 366.709091 725.239716 
L 442.8 717.377524 
L 518.890909 654.115834 
L 594.981818 133.330909 
" style="fill:none;stroke:#e377c2;stroke-linecap:square;stroke-width:1.5;"/>
    <defs>
     <path d="M 0 3 
C 0.795609 3 1.55874 2.683901 2.12132 2.12132 
C 2.683901 1.55874 3 0.795609 3 0 
C 3 -0.795609 2.683901 -1.55874 2.12132 -2.12132 
C 1.55874 -2.683901 0.795609 -3 0 -3 
C -0.795609 -3 -1.55874 -2.683901 -2.12132 -2.12132 
C -2.683901 -1.55874 -3 -0.795609 -3 0 
C -3 0.795609 -2.683901 1.55874 -2.12132 2.12132 
C -1.55874 2.683901 -0.795609 3 0 3 
z
" id="ma15acb8094" style="stroke:#e377c2;"/>
    </defs>
    <g clip-path="url(#pc240bd013e)">
     <use style="fill:#e377c2;stroke:#e377c2;" x="138.436364" xlink:href="#ma15acb8094" y="726.346888"/>
     <use style="fill:#e377c2;stroke:#e377c2;" x="214.527273" xlink:href="#ma15acb8094" y="726.297289"/>
     <use style="fill:#e377c2;stroke:#e377c2;" x="290.618182" xlink:href="#ma15acb8094" y="726.161291"/>
     <use style="fill:#e377c2;stroke:#e377c2;" x="366.709091" xlink:href="#ma15acb8094" y="725.239716"/>
     <use style="fill:#e377c2;stroke:#e377c2;" x="442.8" xlink:href="#ma15acb8094" y="717.377524"/>
     <use style="fill:#e377c2;stroke:#e377c2;" x="518.890909" xlink:href="#ma15acb8094" y="654.115834"/>
     <use style="fill:#e377c2;stroke:#e377c2;" x="594.981818" xlink:href="#ma15acb8094" y="133.330909"/>
    </g>
   </g>
   <g id="line2d_40">
    <path clip-path="url(#pc240bd013e)" d="M 138.436364 726.349072 
L 214.527273 726.349039 
L 290.618182 726.348717 
L 366.709091 726.347779 
L 442.8 726.33893 
L 518.890909 726.270398 
L 594.981818 725.138841 
" style="fill:none;stroke:#7f7f7f;stroke-linecap:square;stroke-width:1.5;"/>
    <defs>
     <path d="M 0 3 
C 0.795609 3 1.55874 2.683901 2.12132 2.12132 
C 2.683901 1.55874 3 0.795609 3 0 
C 3 -0.795609 2.683901 -1.55874 2.12132 -2.12132 
C 1.55874 -2.683901 0.795609 -3 0 -3 
C -0.795609 -3 -1.55874 -2.683901 -2.12132 -2.12132 
C -2.683901 -1.55874 -3 -0.795609 -3 0 
C -3 0.795609 -2.683901 1.55874 -2.12132 2.12132 
C -1.55874 2.683901 -0.795609 3 0 3 
z
" id="m68067a7675" style="stroke:#7f7f7f;"/>
    </defs>
    <g clip-path="url(#pc240bd013e)">
     <use style="fill:#7f7f7f;stroke:#7f7f7f;" x="138.436364" xlink:href="#m68067a7675" y="726.349072"/>
     <use style="fill:#7f7f7f;stroke:#7f7f7f;" x="214.527273" xlink:href="#m68067a7675" y="726.349039"/>
     <use style="fill:#7f7f7f;stroke:#7f7f7f;" x="290.618182" xlink:href="#m68067a7675" y="726.348717"/>
     <use style="fill:#7f7f7f;stroke:#7f7f7f;" x="366.709091" xlink:href="#m68067a7675" y="726.347779"/>
     <use style="fill:#7f7f7f;stroke:#7f7f7f;" x="442.8" xlink:href="#m68067a7675" y="726.33893"/>
     <use style="fill:#7f7f7f;stroke:#7f7f7f;" x="518.890909" xlink:href="#m68067a7675" y="726.270398"/>
     <use style="fill:#7f7f7f;stroke:#7f7f7f;" x="594.981818" xlink:href="#m68067a7675" y="725.138841"/>
    </g>
   </g>
   <g id="line2d_41">
    <path clip-path="url(#pc240bd013e)" d="M 138.436364 726.34883 
L 214.527273 726.348665 
L 290.618182 726.346021 
L 366.709091 726.347585 
L 442.8 726.340674 
L 518.890909 726.289758 
L 594.981818 726.02811 
" style="fill:none;stroke:#bcbd22;stroke-linecap:square;stroke-width:1.5;"/>
    <defs>
     <path d="M 0 3 
C 0.795609 3 1.55874 2.683901 2.12132 2.12132 
C 2.683901 1.55874 3 0.795609 3 0 
C 3 -0.795609 2.683901 -1.55874 2.12132 -2.12132 
C 1.55874 -2.683901 0.795609 -3 0 -3 
C -0.795609 -3 -1.55874 -2.683901 -2.12132 -2.12132 
C -2.683901 -1.55874 -3 -0.795609 -3 0 
C -3 0.795609 -2.683901 1.55874 -2.12132 2.12132 
C -1.55874 2.683901 -0.795609 3 0 3 
z
" id="m61b3f7ecc3" style="stroke:#bcbd22;"/>
    </defs>
    <g clip-path="url(#pc240bd013e)">
     <use style="fill:#bcbd22;stroke:#bcbd22;" x="138.436364" xlink:href="#m61b3f7ecc3" y="726.34883"/>
     <use style="fill:#bcbd22;stroke:#bcbd22;" x="214.527273" xlink:href="#m61b3f7ecc3" y="726.348665"/>
     <use style="fill:#bcbd22;stroke:#bcbd22;" x="290.618182" xlink:href="#m61b3f7ecc3" y="726.346021"/>
     <use style="fill:#bcbd22;stroke:#bcbd22;" x="366.709091" xlink:href="#m61b3f7ecc3" y="726.347585"/>
     <use style="fill:#bcbd22;stroke:#bcbd22;" x="442.8" xlink:href="#m61b3f7ecc3" y="726.340674"/>
     <use style="fill:#bcbd22;stroke:#bcbd22;" x="518.890909" xlink:href="#m61b3f7ecc3" y="726.289758"/>
     <use style="fill:#bcbd22;stroke:#bcbd22;" x="594.981818" xlink:href="#m61b3f7ecc3" y="726.02811"/>
    </g>
   </g>
   <g id="patch_3">
    <path d="M 108 756 
L 108 103.68 
" style="fill:none;stroke:#000000;stroke-linecap:square;stroke-linejoin:miter;stroke-width:0.8;"/>
   </g>
   <g id="patch_4">
    <path d="M 777.6 756 
L 777.6 103.68 
" style="fill:none;stroke:#000000;stroke-linecap:square;stroke-linejoin:miter;stroke-width:0.8;"/>
   </g>
   <g id="patch_5">
    <path d="M 108 756 
L 777.6 756 
" style="fill:none;stroke:#000000;stroke-linecap:square;stroke-linejoin:miter;stroke-width:0.8;"/>
   </g>
   <g id="patch_6">
    <path d="M 108 103.68 
L 777.6 103.68 
" style="fill:none;stroke:#000000;stroke-linecap:square;stroke-linejoin:miter;stroke-width:0.8;"/>
   </g>
   <g id="text_19">
    <!-- All Implementations -->
    <g transform="translate(310.550438 97.68)scale(0.264 -0.264)">
     <defs>
      <path d="M 2188 4044 
L 1331 1722 
L 3047 1722 
L 2188 4044 
z
M 1831 4666 
L 2547 4666 
L 4325 0 
L 3669 0 
L 3244 1197 
L 1141 1197 
L 716 0 
L 50 0 
L 1831 4666 
z
" id="DejaVuSans-41" transform="scale(0.015625)"/>
      <path d="M 603 4863 
L 1178 4863 
L 1178 0 
L 603 0 
L 603 4863 
z
" id="DejaVuSans-6c" transform="scale(0.015625)"/>
      <path d="M 628 4666 
L 1259 4666 
L 1259 0 
L 628 0 
L 628 4666 
z
" id="DejaVuSans-49" transform="scale(0.015625)"/>
      <path d="M 3513 2113 
L 3513 0 
L 2938 0 
L 2938 2094 
Q 2938 2591 2744 2837 
Q 2550 3084 2163 3084 
Q 1697 3084 1428 2787 
Q 1159 2491 1159 1978 
L 1159 0 
L 581 0 
L 581 3500 
L 1159 3500 
L 1159 2956 
Q 1366 3272 1645 3428 
Q 1925 3584 2291 3584 
Q 2894 3584 3203 3211 
Q 3513 2838 3513 2113 
z
" id="DejaVuSans-6e" transform="scale(0.015625)"/>
      <path d="M 1959 3097 
Q 1497 3097 1228 2736 
Q 959 2375 959 1747 
Q 959 1119 1226 758 
Q 1494 397 1959 397 
Q 2419 397 2687 759 
Q 2956 1122 2956 1747 
Q 2956 2369 2687 2733 
Q 2419 3097 1959 3097 
z
M 1959 3584 
Q 2709 3584 3137 3096 
Q 3566 2609 3566 1747 
Q 3566 888 3137 398 
Q 2709 -91 1959 -91 
Q 1206 -91 779 398 
Q 353 888 353 1747 
Q 353 2609 779 3096 
Q 1206 3584 1959 3584 
z
" id="DejaVuSans-6f" transform="scale(0.015625)"/>
     </defs>
     <use xlink:href="#DejaVuSans-41"/>
     <use x="68.408203" xlink:href="#DejaVuSans-6c"/>
     <use x="96.191406" xlink:href="#DejaVuSans-6c"/>
     <use x="123.974609" xlink:href="#DejaVuSans-20"/>
     <use x="155.761719" xlink:href="#DejaVuSans-49"/>
     <use x="185.253906" xlink:href="#DejaVuSans-6d"/>
     <use x="282.666016" xlink:href="#DejaVuSans-70"/>
     <use x="346.142578" xlink:href="#DejaVuSans-6c"/>
     <use x="373.925781" xlink:href="#DejaVuSans-65"/>
     <use x="435.449219" xlink:href="#DejaVuSans-6d"/>
     <use x="532.861328" xlink:href="#DejaVuSans-65"/>
     <use x="594.384766" xlink:href="#DejaVuSans-6e"/>
     <use x="657.763672" xlink:href="#DejaVuSans-74"/>
     <use x="696.972656" xlink:href="#DejaVuSans-61"/>
     <use x="758.251953" xlink:href="#DejaVuSans-74"/>
     <use x="797.460938" xlink:href="#DejaVuSans-69"/>
     <use x="825.244141" xlink:href="#DejaVuSans-6f"/>
     <use x="886.425781" xlink:href="#DejaVuSans-6e"/>
     <use x="949.804688" xlink:href="#DejaVuSans-73"/>
    </g>
   </g>
   <g id="legend_1">
    <g id="patch_7">
     <path d="M 123.4 411.906875 
L 573.557813 411.906875 
Q 577.957813 411.906875 577.957813 407.506875 
L 577.957813 119.08 
Q 577.957813 114.68 573.557813 114.68 
L 123.4 114.68 
Q 119 114.68 119 119.08 
L 119 407.506875 
Q 119 411.906875 123.4 411.906875 
z
" style="fill:#ffffff;opacity:0.8;stroke:#cccccc;stroke-linejoin:miter;"/>
    </g>
    <g id="line2d_42">
     <path d="M 127.8 132.496563 
L 171.8 132.496563 
" style="fill:none;stroke:#1f77b4;stroke-linecap:square;stroke-width:1.5;"/>
    </g>
    <g id="line2d_43">
     <g>
      <use style="fill:#1f77b4;stroke:#1f77b4;" x="149.8" xlink:href="#m0368bc38af" y="132.496563"/>
     </g>
    </g>
    <g id="text_20">
     <!-- Python Numpy Dot -->
     <g transform="translate(189.4 140.196563)scale(0.22 -0.22)">
      <defs>
       <path d="M 1259 4147 
L 1259 2394 
L 2053 2394 
Q 2494 2394 2734 2622 
Q 2975 2850 2975 3272 
Q 2975 3691 2734 3919 
Q 2494 4147 2053 4147 
L 1259 4147 
z
M 628 4666 
L 2053 4666 
Q 2838 4666 3239 4311 
Q 3641 3956 3641 3272 
Q 3641 2581 3239 2228 
Q 2838 1875 2053 1875 
L 1259 1875 
L 1259 0 
L 628 0 
L 628 4666 
z
" id="DejaVuSans-50" transform="scale(0.015625)"/>
       <path d="M 2059 -325 
Q 1816 -950 1584 -1140 
Q 1353 -1331 966 -1331 
L 506 -1331 
L 506 -850 
L 844 -850 
Q 1081 -850 1212 -737 
Q 1344 -625 1503 -206 
L 1606 56 
L 191 3500 
L 800 3500 
L 1894 763 
L 2988 3500 
L 3597 3500 
L 2059 -325 
z
" id="DejaVuSans-79" transform="scale(0.015625)"/>
       <path d="M 628 4666 
L 1478 4666 
L 3547 763 
L 3547 4666 
L 4159 4666 
L 4159 0 
L 3309 0 
L 1241 3903 
L 1241 0 
L 628 0 
L 628 4666 
z
" id="DejaVuSans-4e" transform="scale(0.015625)"/>
       <path d="M 544 1381 
L 544 3500 
L 1119 3500 
L 1119 1403 
Q 1119 906 1312 657 
Q 1506 409 1894 409 
Q 2359 409 2629 706 
Q 2900 1003 2900 1516 
L 2900 3500 
L 3475 3500 
L 3475 0 
L 2900 0 
L 2900 538 
Q 2691 219 2414 64 
Q 2138 -91 1772 -91 
Q 1169 -91 856 284 
Q 544 659 544 1381 
z
M 1991 3584 
L 1991 3584 
z
" id="DejaVuSans-75" transform="scale(0.015625)"/>
       <path d="M 1259 4147 
L 1259 519 
L 2022 519 
Q 2988 519 3436 956 
Q 3884 1394 3884 2338 
Q 3884 3275 3436 3711 
Q 2988 4147 2022 4147 
L 1259 4147 
z
M 628 4666 
L 1925 4666 
Q 3281 4666 3915 4102 
Q 4550 3538 4550 2338 
Q 4550 1131 3912 565 
Q 3275 0 1925 0 
L 628 0 
L 628 4666 
z
" id="DejaVuSans-44" transform="scale(0.015625)"/>
      </defs>
      <use xlink:href="#DejaVuSans-50"/>
      <use x="60.302734" xlink:href="#DejaVuSans-79"/>
      <use x="119.482422" xlink:href="#DejaVuSans-74"/>
      <use x="158.691406" xlink:href="#DejaVuSans-68"/>
      <use x="222.070312" xlink:href="#DejaVuSans-6f"/>
      <use x="283.251953" xlink:href="#DejaVuSans-6e"/>
      <use x="346.630859" xlink:href="#DejaVuSans-20"/>
      <use x="378.417969" xlink:href="#DejaVuSans-4e"/>
      <use x="453.222656" xlink:href="#DejaVuSans-75"/>
      <use x="516.601562" xlink:href="#DejaVuSans-6d"/>
      <use x="614.013672" xlink:href="#DejaVuSans-70"/>
      <use x="677.490234" xlink:href="#DejaVuSans-79"/>
      <use x="736.669922" xlink:href="#DejaVuSans-20"/>
      <use x="768.457031" xlink:href="#DejaVuSans-44"/>
      <use x="845.458984" xlink:href="#DejaVuSans-6f"/>
      <use x="906.640625" xlink:href="#DejaVuSans-74"/>
     </g>
    </g>
    <g id="line2d_44">
     <path d="M 127.8 164.788438 
L 171.8 164.788438 
" style="fill:none;stroke:#ff7f0e;stroke-linecap:square;stroke-width:1.5;"/>
    </g>
    <g id="line2d_45">
     <g>
      <use style="fill:#ff7f0e;stroke:#ff7f0e;" x="149.8" xlink:href="#m831e2f245b" y="164.788438"/>
     </g>
    </g>
    <g id="text_21">
     <!-- Python Pytorch GPU -->
     <g transform="translate(189.4 172.488438)scale(0.22 -0.22)">
      <defs>
       <path d="M 3122 3366 
L 3122 2828 
Q 2878 2963 2633 3030 
Q 2388 3097 2138 3097 
Q 1578 3097 1268 2742 
Q 959 2388 959 1747 
Q 959 1106 1268 751 
Q 1578 397 2138 397 
Q 2388 397 2633 464 
Q 2878 531 3122 666 
L 3122 134 
Q 2881 22 2623 -34 
Q 2366 -91 2075 -91 
Q 1284 -91 818 406 
Q 353 903 353 1747 
Q 353 2603 823 3093 
Q 1294 3584 2113 3584 
Q 2378 3584 2631 3529 
Q 2884 3475 3122 3366 
z
" id="DejaVuSans-63" transform="scale(0.015625)"/>
       <path d="M 3809 666 
L 3809 1919 
L 2778 1919 
L 2778 2438 
L 4434 2438 
L 4434 434 
Q 4069 175 3628 42 
Q 3188 -91 2688 -91 
Q 1594 -91 976 548 
Q 359 1188 359 2328 
Q 359 3472 976 4111 
Q 1594 4750 2688 4750 
Q 3144 4750 3555 4637 
Q 3966 4525 4313 4306 
L 4313 3634 
Q 3963 3931 3569 4081 
Q 3175 4231 2741 4231 
Q 1884 4231 1454 3753 
Q 1025 3275 1025 2328 
Q 1025 1384 1454 906 
Q 1884 428 2741 428 
Q 3075 428 3337 486 
Q 3600 544 3809 666 
z
" id="DejaVuSans-47" transform="scale(0.015625)"/>
       <path d="M 556 4666 
L 1191 4666 
L 1191 1831 
Q 1191 1081 1462 751 
Q 1734 422 2344 422 
Q 2950 422 3222 751 
Q 3494 1081 3494 1831 
L 3494 4666 
L 4128 4666 
L 4128 1753 
Q 4128 841 3676 375 
Q 3225 -91 2344 -91 
Q 1459 -91 1007 375 
Q 556 841 556 1753 
L 556 4666 
z
" id="DejaVuSans-55" transform="scale(0.015625)"/>
      </defs>
      <use xlink:href="#DejaVuSans-50"/>
      <use x="60.302734" xlink:href="#DejaVuSans-79"/>
      <use x="119.482422" xlink:href="#DejaVuSans-74"/>
      <use x="158.691406" xlink:href="#DejaVuSans-68"/>
      <use x="222.070312" xlink:href="#DejaVuSans-6f"/>
      <use x="283.251953" xlink:href="#DejaVuSans-6e"/>
      <use x="346.630859" xlink:href="#DejaVuSans-20"/>
      <use x="378.417969" xlink:href="#DejaVuSans-50"/>
      <use x="438.720703" xlink:href="#DejaVuSans-79"/>
      <use x="497.900391" xlink:href="#DejaVuSans-74"/>
      <use x="537.109375" xlink:href="#DejaVuSans-6f"/>
      <use x="598.291016" xlink:href="#DejaVuSans-72"/>
      <use x="637.154297" xlink:href="#DejaVuSans-63"/>
      <use x="692.134766" xlink:href="#DejaVuSans-68"/>
      <use x="755.513672" xlink:href="#DejaVuSans-20"/>
      <use x="787.300781" xlink:href="#DejaVuSans-47"/>
      <use x="864.791016" xlink:href="#DejaVuSans-50"/>
      <use x="925.09375" xlink:href="#DejaVuSans-55"/>
     </g>
    </g>
    <g id="line2d_46">
     <path d="M 127.8 197.080313 
L 171.8 197.080313 
" style="fill:none;stroke:#2ca02c;stroke-linecap:square;stroke-width:1.5;"/>
    </g>
    <g id="line2d_47">
     <g>
      <use style="fill:#2ca02c;stroke:#2ca02c;" x="149.8" xlink:href="#m0ebde20ccc" y="197.080313"/>
     </g>
    </g>
    <g id="text_22">
     <!-- Python PyCuda Kernel -->
     <g transform="translate(189.4 204.780313)scale(0.22 -0.22)">
      <defs>
       <path d="M 4122 4306 
L 4122 3641 
Q 3803 3938 3442 4084 
Q 3081 4231 2675 4231 
Q 1875 4231 1450 3742 
Q 1025 3253 1025 2328 
Q 1025 1406 1450 917 
Q 1875 428 2675 428 
Q 3081 428 3442 575 
Q 3803 722 4122 1019 
L 4122 359 
Q 3791 134 3420 21 
Q 3050 -91 2638 -91 
Q 1578 -91 968 557 
Q 359 1206 359 2328 
Q 359 3453 968 4101 
Q 1578 4750 2638 4750 
Q 3056 4750 3426 4639 
Q 3797 4528 4122 4306 
z
" id="DejaVuSans-43" transform="scale(0.015625)"/>
       <path d="M 2906 2969 
L 2906 4863 
L 3481 4863 
L 3481 0 
L 2906 0 
L 2906 525 
Q 2725 213 2448 61 
Q 2172 -91 1784 -91 
Q 1150 -91 751 415 
Q 353 922 353 1747 
Q 353 2572 751 3078 
Q 1150 3584 1784 3584 
Q 2172 3584 2448 3432 
Q 2725 3281 2906 2969 
z
M 947 1747 
Q 947 1113 1208 752 
Q 1469 391 1925 391 
Q 2381 391 2643 752 
Q 2906 1113 2906 1747 
Q 2906 2381 2643 2742 
Q 2381 3103 1925 3103 
Q 1469 3103 1208 2742 
Q 947 2381 947 1747 
z
" id="DejaVuSans-64" transform="scale(0.015625)"/>
       <path d="M 628 4666 
L 1259 4666 
L 1259 2694 
L 3353 4666 
L 4166 4666 
L 1850 2491 
L 4331 0 
L 3500 0 
L 1259 2247 
L 1259 0 
L 628 0 
L 628 4666 
z
" id="DejaVuSans-4b" transform="scale(0.015625)"/>
      </defs>
      <use xlink:href="#DejaVuSans-50"/>
      <use x="60.302734" xlink:href="#DejaVuSans-79"/>
      <use x="119.482422" xlink:href="#DejaVuSans-74"/>
      <use x="158.691406" xlink:href="#DejaVuSans-68"/>
      <use x="222.070312" xlink:href="#DejaVuSans-6f"/>
      <use x="283.251953" xlink:href="#DejaVuSans-6e"/>
      <use x="346.630859" xlink:href="#DejaVuSans-20"/>
      <use x="378.417969" xlink:href="#DejaVuSans-50"/>
      <use x="438.720703" xlink:href="#DejaVuSans-79"/>
      <use x="497.900391" xlink:href="#DejaVuSans-43"/>
      <use x="567.724609" xlink:href="#DejaVuSans-75"/>
      <use x="631.103516" xlink:href="#DejaVuSans-64"/>
      <use x="694.580078" xlink:href="#DejaVuSans-61"/>
      <use x="755.859375" xlink:href="#DejaVuSans-20"/>
      <use x="787.646484" xlink:href="#DejaVuSans-4b"/>
      <use x="848.222656" xlink:href="#DejaVuSans-65"/>
      <use x="909.746094" xlink:href="#DejaVuSans-72"/>
      <use x="949.109375" xlink:href="#DejaVuSans-6e"/>
      <use x="1012.488281" xlink:href="#DejaVuSans-65"/>
      <use x="1074.011719" xlink:href="#DejaVuSans-6c"/>
     </g>
    </g>
    <g id="line2d_48">
     <path d="M 127.8 229.372188 
L 171.8 229.372188 
" style="fill:none;stroke:#d62728;stroke-linecap:square;stroke-width:1.5;"/>
    </g>
    <g id="line2d_49">
     <g>
      <use style="fill:#d62728;stroke:#d62728;" x="149.8" xlink:href="#mf1a63f3493" y="229.372188"/>
     </g>
    </g>
    <g id="text_23">
     <!-- Python PyCuda High-Level cuBLAS -->
     <g transform="translate(189.4 237.072188)scale(0.22 -0.22)">
      <defs>
       <path d="M 628 4666 
L 1259 4666 
L 1259 2753 
L 3553 2753 
L 3553 4666 
L 4184 4666 
L 4184 0 
L 3553 0 
L 3553 2222 
L 1259 2222 
L 1259 0 
L 628 0 
L 628 4666 
z
" id="DejaVuSans-48" transform="scale(0.015625)"/>
       <path d="M 2906 1791 
Q 2906 2416 2648 2759 
Q 2391 3103 1925 3103 
Q 1463 3103 1205 2759 
Q 947 2416 947 1791 
Q 947 1169 1205 825 
Q 1463 481 1925 481 
Q 2391 481 2648 825 
Q 2906 1169 2906 1791 
z
M 3481 434 
Q 3481 -459 3084 -895 
Q 2688 -1331 1869 -1331 
Q 1566 -1331 1297 -1286 
Q 1028 -1241 775 -1147 
L 775 -588 
Q 1028 -725 1275 -790 
Q 1522 -856 1778 -856 
Q 2344 -856 2625 -561 
Q 2906 -266 2906 331 
L 2906 616 
Q 2728 306 2450 153 
Q 2172 0 1784 0 
Q 1141 0 747 490 
Q 353 981 353 1791 
Q 353 2603 747 3093 
Q 1141 3584 1784 3584 
Q 2172 3584 2450 3431 
Q 2728 3278 2906 2969 
L 2906 3500 
L 3481 3500 
L 3481 434 
z
" id="DejaVuSans-67" transform="scale(0.015625)"/>
       <path d="M 313 2009 
L 1997 2009 
L 1997 1497 
L 313 1497 
L 313 2009 
z
" id="DejaVuSans-2d" transform="scale(0.015625)"/>
       <path d="M 628 4666 
L 1259 4666 
L 1259 531 
L 3531 531 
L 3531 0 
L 628 0 
L 628 4666 
z
" id="DejaVuSans-4c" transform="scale(0.015625)"/>
       <path d="M 191 3500 
L 800 3500 
L 1894 563 
L 2988 3500 
L 3597 3500 
L 2284 0 
L 1503 0 
L 191 3500 
z
" id="DejaVuSans-76" transform="scale(0.015625)"/>
       <path d="M 1259 2228 
L 1259 519 
L 2272 519 
Q 2781 519 3026 730 
Q 3272 941 3272 1375 
Q 3272 1813 3026 2020 
Q 2781 2228 2272 2228 
L 1259 2228 
z
M 1259 4147 
L 1259 2741 
L 2194 2741 
Q 2656 2741 2882 2914 
Q 3109 3088 3109 3444 
Q 3109 3797 2882 3972 
Q 2656 4147 2194 4147 
L 1259 4147 
z
M 628 4666 
L 2241 4666 
Q 2963 4666 3353 4366 
Q 3744 4066 3744 3513 
Q 3744 3084 3544 2831 
Q 3344 2578 2956 2516 
Q 3422 2416 3680 2098 
Q 3938 1781 3938 1306 
Q 3938 681 3513 340 
Q 3088 0 2303 0 
L 628 0 
L 628 4666 
z
" id="DejaVuSans-42" transform="scale(0.015625)"/>
       <path d="M 3425 4513 
L 3425 3897 
Q 3066 4069 2747 4153 
Q 2428 4238 2131 4238 
Q 1616 4238 1336 4038 
Q 1056 3838 1056 3469 
Q 1056 3159 1242 3001 
Q 1428 2844 1947 2747 
L 2328 2669 
Q 3034 2534 3370 2195 
Q 3706 1856 3706 1288 
Q 3706 609 3251 259 
Q 2797 -91 1919 -91 
Q 1588 -91 1214 -16 
Q 841 59 441 206 
L 441 856 
Q 825 641 1194 531 
Q 1563 422 1919 422 
Q 2459 422 2753 634 
Q 3047 847 3047 1241 
Q 3047 1584 2836 1778 
Q 2625 1972 2144 2069 
L 1759 2144 
Q 1053 2284 737 2584 
Q 422 2884 422 3419 
Q 422 4038 858 4394 
Q 1294 4750 2059 4750 
Q 2388 4750 2728 4690 
Q 3069 4631 3425 4513 
z
" id="DejaVuSans-53" transform="scale(0.015625)"/>
      </defs>
      <use xlink:href="#DejaVuSans-50"/>
      <use x="60.302734" xlink:href="#DejaVuSans-79"/>
      <use x="119.482422" xlink:href="#DejaVuSans-74"/>
      <use x="158.691406" xlink:href="#DejaVuSans-68"/>
      <use x="222.070312" xlink:href="#DejaVuSans-6f"/>
      <use x="283.251953" xlink:href="#DejaVuSans-6e"/>
      <use x="346.630859" xlink:href="#DejaVuSans-20"/>
      <use x="378.417969" xlink:href="#DejaVuSans-50"/>
      <use x="438.720703" xlink:href="#DejaVuSans-79"/>
      <use x="497.900391" xlink:href="#DejaVuSans-43"/>
      <use x="567.724609" xlink:href="#DejaVuSans-75"/>
      <use x="631.103516" xlink:href="#DejaVuSans-64"/>
      <use x="694.580078" xlink:href="#DejaVuSans-61"/>
      <use x="755.859375" xlink:href="#DejaVuSans-20"/>
      <use x="787.646484" xlink:href="#DejaVuSans-48"/>
      <use x="862.841797" xlink:href="#DejaVuSans-69"/>
      <use x="890.625" xlink:href="#DejaVuSans-67"/>
      <use x="954.101562" xlink:href="#DejaVuSans-68"/>
      <use x="1017.480469" xlink:href="#DejaVuSans-2d"/>
      <use x="1053.564453" xlink:href="#DejaVuSans-4c"/>
      <use x="1107.527344" xlink:href="#DejaVuSans-65"/>
      <use x="1169.050781" xlink:href="#DejaVuSans-76"/>
      <use x="1228.230469" xlink:href="#DejaVuSans-65"/>
      <use x="1289.753906" xlink:href="#DejaVuSans-6c"/>
      <use x="1317.537109" xlink:href="#DejaVuSans-20"/>
      <use x="1349.324219" xlink:href="#DejaVuSans-63"/>
      <use x="1404.304688" xlink:href="#DejaVuSans-75"/>
      <use x="1467.683594" xlink:href="#DejaVuSans-42"/>
      <use x="1536.287109" xlink:href="#DejaVuSans-4c"/>
      <use x="1594.25" xlink:href="#DejaVuSans-41"/>
      <use x="1662.658203" xlink:href="#DejaVuSans-53"/>
     </g>
    </g>
    <g id="line2d_50">
     <path d="M 127.8 261.664063 
L 171.8 261.664063 
" style="fill:none;stroke:#9467bd;stroke-linecap:square;stroke-width:1.5;"/>
    </g>
    <g id="line2d_51">
     <g>
      <use style="fill:#9467bd;stroke:#9467bd;" x="149.8" xlink:href="#m9907df8ffa" y="261.664063"/>
     </g>
    </g>
    <g id="text_24">
     <!-- Cython cuBLAS -->
     <g transform="translate(189.4 269.364063)scale(0.22 -0.22)">
      <use xlink:href="#DejaVuSans-43"/>
      <use x="69.824219" xlink:href="#DejaVuSans-79"/>
      <use x="129.003906" xlink:href="#DejaVuSans-74"/>
      <use x="168.212891" xlink:href="#DejaVuSans-68"/>
      <use x="231.591797" xlink:href="#DejaVuSans-6f"/>
      <use x="292.773438" xlink:href="#DejaVuSans-6e"/>
      <use x="356.152344" xlink:href="#DejaVuSans-20"/>
      <use x="387.939453" xlink:href="#DejaVuSans-63"/>
      <use x="442.919922" xlink:href="#DejaVuSans-75"/>
      <use x="506.298828" xlink:href="#DejaVuSans-42"/>
      <use x="574.902344" xlink:href="#DejaVuSans-4c"/>
      <use x="632.865234" xlink:href="#DejaVuSans-41"/>
      <use x="701.273438" xlink:href="#DejaVuSans-53"/>
     </g>
    </g>
    <g id="line2d_52">
     <path d="M 127.8 293.955938 
L 171.8 293.955938 
" style="fill:none;stroke:#8c564b;stroke-linecap:square;stroke-width:1.5;"/>
    </g>
    <g id="line2d_53">
     <g>
      <use style="fill:#8c564b;stroke:#8c564b;" x="149.8" xlink:href="#m957cc20f65" y="293.955938"/>
     </g>
    </g>
    <g id="text_25">
     <!-- Python Naive Multiprocessing (4) -->
     <g transform="translate(189.4 301.655938)scale(0.22 -0.22)">
      <use xlink:href="#DejaVuSans-50"/>
      <use x="60.302734" xlink:href="#DejaVuSans-79"/>
      <use x="119.482422" xlink:href="#DejaVuSans-74"/>
      <use x="158.691406" xlink:href="#DejaVuSans-68"/>
      <use x="222.070312" xlink:href="#DejaVuSans-6f"/>
      <use x="283.251953" xlink:href="#DejaVuSans-6e"/>
      <use x="346.630859" xlink:href="#DejaVuSans-20"/>
      <use x="378.417969" xlink:href="#DejaVuSans-4e"/>
      <use x="453.222656" xlink:href="#DejaVuSans-61"/>
      <use x="514.501953" xlink:href="#DejaVuSans-69"/>
      <use x="542.285156" xlink:href="#DejaVuSans-76"/>
      <use x="601.464844" xlink:href="#DejaVuSans-65"/>
      <use x="662.988281" xlink:href="#DejaVuSans-20"/>
      <use x="694.775391" xlink:href="#DejaVuSans-4d"/>
      <use x="781.054688" xlink:href="#DejaVuSans-75"/>
      <use x="844.433594" xlink:href="#DejaVuSans-6c"/>
      <use x="872.216797" xlink:href="#DejaVuSans-74"/>
      <use x="911.425781" xlink:href="#DejaVuSans-69"/>
      <use x="939.208984" xlink:href="#DejaVuSans-70"/>
      <use x="1002.685547" xlink:href="#DejaVuSans-72"/>
      <use x="1041.548828" xlink:href="#DejaVuSans-6f"/>
      <use x="1102.730469" xlink:href="#DejaVuSans-63"/>
      <use x="1157.710938" xlink:href="#DejaVuSans-65"/>
      <use x="1219.234375" xlink:href="#DejaVuSans-73"/>
      <use x="1271.333984" xlink:href="#DejaVuSans-73"/>
      <use x="1323.433594" xlink:href="#DejaVuSans-69"/>
      <use x="1351.216797" xlink:href="#DejaVuSans-6e"/>
      <use x="1414.595703" xlink:href="#DejaVuSans-67"/>
      <use x="1478.072266" xlink:href="#DejaVuSans-20"/>
      <use x="1509.859375" xlink:href="#DejaVuSans-28"/>
      <use x="1548.873047" xlink:href="#DejaVuSans-34"/>
      <use x="1612.496094" xlink:href="#DejaVuSans-29"/>
     </g>
    </g>
    <g id="line2d_54">
     <path d="M 127.8 326.247813 
L 171.8 326.247813 
" style="fill:none;stroke:#e377c2;stroke-linecap:square;stroke-width:1.5;"/>
    </g>
    <g id="line2d_55">
     <g>
      <use style="fill:#e377c2;stroke:#e377c2;" x="149.8" xlink:href="#ma15acb8094" y="326.247813"/>
     </g>
    </g>
    <g id="text_26">
     <!-- Python Naive -->
     <g transform="translate(189.4 333.947813)scale(0.22 -0.22)">
      <use xlink:href="#DejaVuSans-50"/>
      <use x="60.302734" xlink:href="#DejaVuSans-79"/>
      <use x="119.482422" xlink:href="#DejaVuSans-74"/>
      <use x="158.691406" xlink:href="#DejaVuSans-68"/>
      <use x="222.070312" xlink:href="#DejaVuSans-6f"/>
      <use x="283.251953" xlink:href="#DejaVuSans-6e"/>
      <use x="346.630859" xlink:href="#DejaVuSans-20"/>
      <use x="378.417969" xlink:href="#DejaVuSans-4e"/>
      <use x="453.222656" xlink:href="#DejaVuSans-61"/>
      <use x="514.501953" xlink:href="#DejaVuSans-69"/>
      <use x="542.285156" xlink:href="#DejaVuSans-76"/>
      <use x="601.464844" xlink:href="#DejaVuSans-65"/>
     </g>
    </g>
    <g id="line2d_56">
     <path d="M 127.8 358.539688 
L 171.8 358.539688 
" style="fill:none;stroke:#7f7f7f;stroke-linecap:square;stroke-width:1.5;"/>
    </g>
    <g id="line2d_57">
     <g>
      <use style="fill:#7f7f7f;stroke:#7f7f7f;" x="149.8" xlink:href="#m68067a7675" y="358.539688"/>
     </g>
    </g>
    <g id="text_27">
     <!-- Cython CPU -->
     <g transform="translate(189.4 366.239688)scale(0.22 -0.22)">
      <use xlink:href="#DejaVuSans-43"/>
      <use x="69.824219" xlink:href="#DejaVuSans-79"/>
      <use x="129.003906" xlink:href="#DejaVuSans-74"/>
      <use x="168.212891" xlink:href="#DejaVuSans-68"/>
      <use x="231.591797" xlink:href="#DejaVuSans-6f"/>
      <use x="292.773438" xlink:href="#DejaVuSans-6e"/>
      <use x="356.152344" xlink:href="#DejaVuSans-20"/>
      <use x="387.939453" xlink:href="#DejaVuSans-43"/>
      <use x="457.763672" xlink:href="#DejaVuSans-50"/>
      <use x="518.066406" xlink:href="#DejaVuSans-55"/>
     </g>
    </g>
    <g id="line2d_58">
     <path d="M 127.8 390.831563 
L 171.8 390.831563 
" style="fill:none;stroke:#bcbd22;stroke-linecap:square;stroke-width:1.5;"/>
    </g>
    <g id="line2d_59">
     <g>
      <use style="fill:#bcbd22;stroke:#bcbd22;" x="149.8" xlink:href="#m61b3f7ecc3" y="390.831563"/>
     </g>
    </g>
    <g id="text_28">
     <!-- Cython CPU OpenMP (4) -->
     <g transform="translate(189.4 398.531563)scale(0.22 -0.22)">
      <defs>
       <path d="M 2522 4238 
Q 1834 4238 1429 3725 
Q 1025 3213 1025 2328 
Q 1025 1447 1429 934 
Q 1834 422 2522 422 
Q 3209 422 3611 934 
Q 4013 1447 4013 2328 
Q 4013 3213 3611 3725 
Q 3209 4238 2522 4238 
z
M 2522 4750 
Q 3503 4750 4090 4092 
Q 4678 3434 4678 2328 
Q 4678 1225 4090 567 
Q 3503 -91 2522 -91 
Q 1538 -91 948 565 
Q 359 1222 359 2328 
Q 359 3434 948 4092 
Q 1538 4750 2522 4750 
z
" id="DejaVuSans-4f" transform="scale(0.015625)"/>
      </defs>
      <use xlink:href="#DejaVuSans-43"/>
      <use x="69.824219" xlink:href="#DejaVuSans-79"/>
      <use x="129.003906" xlink:href="#DejaVuSans-74"/>
      <use x="168.212891" xlink:href="#DejaVuSans-68"/>
      <use x="231.591797" xlink:href="#DejaVuSans-6f"/>
      <use x="292.773438" xlink:href="#DejaVuSans-6e"/>
      <use x="356.152344" xlink:href="#DejaVuSans-20"/>
      <use x="387.939453" xlink:href="#DejaVuSans-43"/>
      <use x="457.763672" xlink:href="#DejaVuSans-50"/>
      <use x="518.066406" xlink:href="#DejaVuSans-55"/>
      <use x="591.259766" xlink:href="#DejaVuSans-20"/>
      <use x="623.046875" xlink:href="#DejaVuSans-4f"/>
      <use x="701.757812" xlink:href="#DejaVuSans-70"/>
      <use x="765.234375" xlink:href="#DejaVuSans-65"/>
      <use x="826.757812" xlink:href="#DejaVuSans-6e"/>
      <use x="890.136719" xlink:href="#DejaVuSans-4d"/>
      <use x="976.416016" xlink:href="#DejaVuSans-50"/>
      <use x="1036.71875" xlink:href="#DejaVuSans-20"/>
      <use x="1068.505859" xlink:href="#DejaVuSans-28"/>
      <use x="1107.519531" xlink:href="#DejaVuSans-34"/>
      <use x="1171.142578" xlink:href="#DejaVuSans-29"/>
     </g>
    </g>
   </g>
  </g>
 </g>
 <defs>
  <clipPath id="pc240bd013e">
   <rect height="652.32" width="669.6" x="108" y="103.68"/>
  </clipPath>
 </defs>
</svg>
