<?xml version="1.0" encoding="utf-8" standalone="no"?>
<!DOCTYPE svg PUBLIC "-//W3C//DTD SVG 1.1//EN"
  "http://www.w3.org/Graphics/SVG/1.1/DTD/svg11.dtd">
<svg height="864pt" version="1.1" viewBox="0 0 864 864" width="864pt" xmlns="http://www.w3.org/2000/svg" xmlns:xlink="http://www.w3.org/1999/xlink">
 <metadata>
  <rdf:RDF xmlns:cc="http://creativecommons.org/ns#" xmlns:dc="http://purl.org/dc/elements/1.1/" xmlns:rdf="http://www.w3.org/1999/02/22-rdf-syntax-ns#">
   <cc:Work>
    <dc:type rdf:resource="http://purl.org/dc/dcmitype/StillImage"/>
    <dc:date>2021-09-28T18:31:41.159184</dc:date>
    <dc:format>image/svg+xml</dc:format>
    <dc:creator>
     <cc:Agent>
      <dc:title>Matplotlib v3.4.1, https://matplotlib.org/</dc:title>
     </cc:Agent>
    </dc:creator>
   </cc:Work>
  </rdf:RDF>
 </metadata>
 <defs>
  <style type="text/css">*{stroke-linecap:butt;stroke-linejoin:round;}</style>
 </defs>
 <g id="figure_1">
  <g id="patch_1">
   <path d="M 0 864 
L 864 864 
L 864 0 
L 0 0 
z
" style="fill:none;"/>
  </g>
  <g id="axes_1">
   <g id="patch_2">
    <path d="M 108 756 
L 777.6 756 
L 777.6 103.68 
L 108 103.68 
z
" style="fill:#ffffff;"/>
   </g>
   <g id="matplotlib.axis_1">
    <g id="xtick_1">
     <g id="line2d_1">
      <path clip-path="url(#p394306257a)" d="M 138.436364 756 
L 138.436364 103.68 
" style="fill:none;stroke:#b0b0b0;stroke-linecap:square;stroke-width:0.8;"/>
     </g>
     <g id="line2d_2">
      <defs>
       <path d="M 0 0 
L 0 3.5 
" id="m0df463fee2" style="stroke:#000000;stroke-width:0.8;"/>
      </defs>
      <g>
       <use style="stroke:#000000;stroke-width:0.8;" x="138.436364" xlink:href="#m0df463fee2" y="756"/>
      </g>
     </g>
     <g id="text_1">
      <!-- 7 -->
      <g transform="translate(131.437614 779.716563)scale(0.22 -0.22)">
       <defs>
        <path d="M 525 4666 
L 3525 4666 
L 3525 4397 
L 1831 0 
L 1172 0 
L 2766 4134 
L 525 4134 
L 525 4666 
z
" id="DejaVuSans-37" transform="scale(0.015625)"/>
       </defs>
       <use xlink:href="#DejaVuSans-37"/>
      </g>
     </g>
    </g>
    <g id="xtick_2">
     <g id="line2d_3">
      <path clip-path="url(#p394306257a)" d="M 172.254545 756 
L 172.254545 103.68 
" style="fill:none;stroke:#b0b0b0;stroke-linecap:square;stroke-width:0.8;"/>
     </g>
     <g id="line2d_4">
      <g>
       <use style="stroke:#000000;stroke-width:0.8;" x="172.254545" xlink:href="#m0df463fee2" y="756"/>
      </g>
     </g>
     <g id="text_2">
      <!-- 8 -->
      <g transform="translate(165.255795 779.716563)scale(0.22 -0.22)">
       <defs>
        <path d="M 2034 2216 
Q 1584 2216 1326 1975 
Q 1069 1734 1069 1313 
Q 1069 891 1326 650 
Q 1584 409 2034 409 
Q 2484 409 2743 651 
Q 3003 894 3003 1313 
Q 3003 1734 2745 1975 
Q 2488 2216 2034 2216 
z
M 1403 2484 
Q 997 2584 770 2862 
Q 544 3141 544 3541 
Q 544 4100 942 4425 
Q 1341 4750 2034 4750 
Q 2731 4750 3128 4425 
Q 3525 4100 3525 3541 
Q 3525 3141 3298 2862 
Q 3072 2584 2669 2484 
Q 3125 2378 3379 2068 
Q 3634 1759 3634 1313 
Q 3634 634 3220 271 
Q 2806 -91 2034 -91 
Q 1263 -91 848 271 
Q 434 634 434 1313 
Q 434 1759 690 2068 
Q 947 2378 1403 2484 
z
M 1172 3481 
Q 1172 3119 1398 2916 
Q 1625 2713 2034 2713 
Q 2441 2713 2670 2916 
Q 2900 3119 2900 3481 
Q 2900 3844 2670 4047 
Q 2441 4250 2034 4250 
Q 1625 4250 1398 4047 
Q 1172 3844 1172 3481 
z
" id="DejaVuSans-38" transform="scale(0.015625)"/>
       </defs>
       <use xlink:href="#DejaVuSans-38"/>
      </g>
     </g>
    </g>
    <g id="xtick_3">
     <g id="line2d_5">
      <path clip-path="url(#p394306257a)" d="M 206.072727 756 
L 206.072727 103.68 
" style="fill:none;stroke:#b0b0b0;stroke-linecap:square;stroke-width:0.8;"/>
     </g>
     <g id="line2d_6">
      <g>
       <use style="stroke:#000000;stroke-width:0.8;" x="206.072727" xlink:href="#m0df463fee2" y="756"/>
      </g>
     </g>
     <g id="text_3">
      <!-- 9 -->
      <g transform="translate(199.073977 779.716563)scale(0.22 -0.22)">
       <defs>
        <path d="M 703 97 
L 703 672 
Q 941 559 1184 500 
Q 1428 441 1663 441 
Q 2288 441 2617 861 
Q 2947 1281 2994 2138 
Q 2813 1869 2534 1725 
Q 2256 1581 1919 1581 
Q 1219 1581 811 2004 
Q 403 2428 403 3163 
Q 403 3881 828 4315 
Q 1253 4750 1959 4750 
Q 2769 4750 3195 4129 
Q 3622 3509 3622 2328 
Q 3622 1225 3098 567 
Q 2575 -91 1691 -91 
Q 1453 -91 1209 -44 
Q 966 3 703 97 
z
M 1959 2075 
Q 2384 2075 2632 2365 
Q 2881 2656 2881 3163 
Q 2881 3666 2632 3958 
Q 2384 4250 1959 4250 
Q 1534 4250 1286 3958 
Q 1038 3666 1038 3163 
Q 1038 2656 1286 2365 
Q 1534 2075 1959 2075 
z
" id="DejaVuSans-39" transform="scale(0.015625)"/>
       </defs>
       <use xlink:href="#DejaVuSans-39"/>
      </g>
     </g>
    </g>
    <g id="xtick_4">
     <g id="line2d_7">
      <path clip-path="url(#p394306257a)" d="M 239.890909 756 
L 239.890909 103.68 
" style="fill:none;stroke:#b0b0b0;stroke-linecap:square;stroke-width:0.8;"/>
     </g>
     <g id="line2d_8">
      <g>
       <use style="stroke:#000000;stroke-width:0.8;" x="239.890909" xlink:href="#m0df463fee2" y="756"/>
      </g>
     </g>
     <g id="text_4">
      <!-- 10 -->
      <g transform="translate(225.893409 779.716563)scale(0.22 -0.22)">
       <defs>
        <path d="M 794 531 
L 1825 531 
L 1825 4091 
L 703 3866 
L 703 4441 
L 1819 4666 
L 2450 4666 
L 2450 531 
L 3481 531 
L 3481 0 
L 794 0 
L 794 531 
z
" id="DejaVuSans-31" transform="scale(0.015625)"/>
        <path d="M 2034 4250 
Q 1547 4250 1301 3770 
Q 1056 3291 1056 2328 
Q 1056 1369 1301 889 
Q 1547 409 2034 409 
Q 2525 409 2770 889 
Q 3016 1369 3016 2328 
Q 3016 3291 2770 3770 
Q 2525 4250 2034 4250 
z
M 2034 4750 
Q 2819 4750 3233 4129 
Q 3647 3509 3647 2328 
Q 3647 1150 3233 529 
Q 2819 -91 2034 -91 
Q 1250 -91 836 529 
Q 422 1150 422 2328 
Q 422 3509 836 4129 
Q 1250 4750 2034 4750 
z
" id="DejaVuSans-30" transform="scale(0.015625)"/>
       </defs>
       <use xlink:href="#DejaVuSans-31"/>
       <use x="63.623047" xlink:href="#DejaVuSans-30"/>
      </g>
     </g>
    </g>
    <g id="xtick_5">
     <g id="line2d_9">
      <path clip-path="url(#p394306257a)" d="M 273.709091 756 
L 273.709091 103.68 
" style="fill:none;stroke:#b0b0b0;stroke-linecap:square;stroke-width:0.8;"/>
     </g>
     <g id="line2d_10">
      <g>
       <use style="stroke:#000000;stroke-width:0.8;" x="273.709091" xlink:href="#m0df463fee2" y="756"/>
      </g>
     </g>
     <g id="text_5">
      <!-- 11 -->
      <g transform="translate(259.711591 779.716563)scale(0.22 -0.22)">
       <use xlink:href="#DejaVuSans-31"/>
       <use x="63.623047" xlink:href="#DejaVuSans-31"/>
      </g>
     </g>
    </g>
    <g id="xtick_6">
     <g id="line2d_11">
      <path clip-path="url(#p394306257a)" d="M 307.527273 756 
L 307.527273 103.68 
" style="fill:none;stroke:#b0b0b0;stroke-linecap:square;stroke-width:0.8;"/>
     </g>
     <g id="line2d_12">
      <g>
       <use style="stroke:#000000;stroke-width:0.8;" x="307.527273" xlink:href="#m0df463fee2" y="756"/>
      </g>
     </g>
     <g id="text_6">
      <!-- 12 -->
      <g transform="translate(293.529773 779.716563)scale(0.22 -0.22)">
       <defs>
        <path d="M 1228 531 
L 3431 531 
L 3431 0 
L 469 0 
L 469 531 
Q 828 903 1448 1529 
Q 2069 2156 2228 2338 
Q 2531 2678 2651 2914 
Q 2772 3150 2772 3378 
Q 2772 3750 2511 3984 
Q 2250 4219 1831 4219 
Q 1534 4219 1204 4116 
Q 875 4013 500 3803 
L 500 4441 
Q 881 4594 1212 4672 
Q 1544 4750 1819 4750 
Q 2544 4750 2975 4387 
Q 3406 4025 3406 3419 
Q 3406 3131 3298 2873 
Q 3191 2616 2906 2266 
Q 2828 2175 2409 1742 
Q 1991 1309 1228 531 
z
" id="DejaVuSans-32" transform="scale(0.015625)"/>
       </defs>
       <use xlink:href="#DejaVuSans-31"/>
       <use x="63.623047" xlink:href="#DejaVuSans-32"/>
      </g>
     </g>
    </g>
    <g id="xtick_7">
     <g id="line2d_13">
      <path clip-path="url(#p394306257a)" d="M 341.345455 756 
L 341.345455 103.68 
" style="fill:none;stroke:#b0b0b0;stroke-linecap:square;stroke-width:0.8;"/>
     </g>
     <g id="line2d_14">
      <g>
       <use style="stroke:#000000;stroke-width:0.8;" x="341.345455" xlink:href="#m0df463fee2" y="756"/>
      </g>
     </g>
     <g id="text_7">
      <!-- 13 -->
      <g transform="translate(327.347955 779.716563)scale(0.22 -0.22)">
       <defs>
        <path d="M 2597 2516 
Q 3050 2419 3304 2112 
Q 3559 1806 3559 1356 
Q 3559 666 3084 287 
Q 2609 -91 1734 -91 
Q 1441 -91 1130 -33 
Q 819 25 488 141 
L 488 750 
Q 750 597 1062 519 
Q 1375 441 1716 441 
Q 2309 441 2620 675 
Q 2931 909 2931 1356 
Q 2931 1769 2642 2001 
Q 2353 2234 1838 2234 
L 1294 2234 
L 1294 2753 
L 1863 2753 
Q 2328 2753 2575 2939 
Q 2822 3125 2822 3475 
Q 2822 3834 2567 4026 
Q 2313 4219 1838 4219 
Q 1578 4219 1281 4162 
Q 984 4106 628 3988 
L 628 4550 
Q 988 4650 1302 4700 
Q 1616 4750 1894 4750 
Q 2613 4750 3031 4423 
Q 3450 4097 3450 3541 
Q 3450 3153 3228 2886 
Q 3006 2619 2597 2516 
z
" id="DejaVuSans-33" transform="scale(0.015625)"/>
       </defs>
       <use xlink:href="#DejaVuSans-31"/>
       <use x="63.623047" xlink:href="#DejaVuSans-33"/>
      </g>
     </g>
    </g>
    <g id="xtick_8">
     <g id="line2d_15">
      <path clip-path="url(#p394306257a)" d="M 375.163636 756 
L 375.163636 103.68 
" style="fill:none;stroke:#b0b0b0;stroke-linecap:square;stroke-width:0.8;"/>
     </g>
     <g id="line2d_16">
      <g>
       <use style="stroke:#000000;stroke-width:0.8;" x="375.163636" xlink:href="#m0df463fee2" y="756"/>
      </g>
     </g>
     <g id="text_8">
      <!-- 14 -->
      <g transform="translate(361.166136 779.716563)scale(0.22 -0.22)">
       <defs>
        <path d="M 2419 4116 
L 825 1625 
L 2419 1625 
L 2419 4116 
z
M 2253 4666 
L 3047 4666 
L 3047 1625 
L 3713 1625 
L 3713 1100 
L 3047 1100 
L 3047 0 
L 2419 0 
L 2419 1100 
L 313 1100 
L 313 1709 
L 2253 4666 
z
" id="DejaVuSans-34" transform="scale(0.015625)"/>
       </defs>
       <use xlink:href="#DejaVuSans-31"/>
       <use x="63.623047" xlink:href="#DejaVuSans-34"/>
      </g>
     </g>
    </g>
    <g id="xtick_9">
     <g id="line2d_17">
      <path clip-path="url(#p394306257a)" d="M 408.981818 756 
L 408.981818 103.68 
" style="fill:none;stroke:#b0b0b0;stroke-linecap:square;stroke-width:0.8;"/>
     </g>
     <g id="line2d_18">
      <g>
       <use style="stroke:#000000;stroke-width:0.8;" x="408.981818" xlink:href="#m0df463fee2" y="756"/>
      </g>
     </g>
     <g id="text_9">
      <!-- 15 -->
      <g transform="translate(394.984318 779.716563)scale(0.22 -0.22)">
       <defs>
        <path d="M 691 4666 
L 3169 4666 
L 3169 4134 
L 1269 4134 
L 1269 2991 
Q 1406 3038 1543 3061 
Q 1681 3084 1819 3084 
Q 2600 3084 3056 2656 
Q 3513 2228 3513 1497 
Q 3513 744 3044 326 
Q 2575 -91 1722 -91 
Q 1428 -91 1123 -41 
Q 819 9 494 109 
L 494 744 
Q 775 591 1075 516 
Q 1375 441 1709 441 
Q 2250 441 2565 725 
Q 2881 1009 2881 1497 
Q 2881 1984 2565 2268 
Q 2250 2553 1709 2553 
Q 1456 2553 1204 2497 
Q 953 2441 691 2322 
L 691 4666 
z
" id="DejaVuSans-35" transform="scale(0.015625)"/>
       </defs>
       <use xlink:href="#DejaVuSans-31"/>
       <use x="63.623047" xlink:href="#DejaVuSans-35"/>
      </g>
     </g>
    </g>
    <g id="xtick_10">
     <g id="line2d_19">
      <path clip-path="url(#p394306257a)" d="M 442.8 756 
L 442.8 103.68 
" style="fill:none;stroke:#b0b0b0;stroke-linecap:square;stroke-width:0.8;"/>
     </g>
     <g id="line2d_20">
      <g>
       <use style="stroke:#000000;stroke-width:0.8;" x="442.8" xlink:href="#m0df463fee2" y="756"/>
      </g>
     </g>
     <g id="text_10">
      <!-- 16 -->
      <g transform="translate(428.8025 779.716563)scale(0.22 -0.22)">
       <defs>
        <path d="M 2113 2584 
Q 1688 2584 1439 2293 
Q 1191 2003 1191 1497 
Q 1191 994 1439 701 
Q 1688 409 2113 409 
Q 2538 409 2786 701 
Q 3034 994 3034 1497 
Q 3034 2003 2786 2293 
Q 2538 2584 2113 2584 
z
M 3366 4563 
L 3366 3988 
Q 3128 4100 2886 4159 
Q 2644 4219 2406 4219 
Q 1781 4219 1451 3797 
Q 1122 3375 1075 2522 
Q 1259 2794 1537 2939 
Q 1816 3084 2150 3084 
Q 2853 3084 3261 2657 
Q 3669 2231 3669 1497 
Q 3669 778 3244 343 
Q 2819 -91 2113 -91 
Q 1303 -91 875 529 
Q 447 1150 447 2328 
Q 447 3434 972 4092 
Q 1497 4750 2381 4750 
Q 2619 4750 2861 4703 
Q 3103 4656 3366 4563 
z
" id="DejaVuSans-36" transform="scale(0.015625)"/>
       </defs>
       <use xlink:href="#DejaVuSans-31"/>
       <use x="63.623047" xlink:href="#DejaVuSans-36"/>
      </g>
     </g>
    </g>
    <g id="xtick_11">
     <g id="line2d_21">
      <path clip-path="url(#p394306257a)" d="M 476.618182 756 
L 476.618182 103.68 
" style="fill:none;stroke:#b0b0b0;stroke-linecap:square;stroke-width:0.8;"/>
     </g>
     <g id="line2d_22">
      <g>
       <use style="stroke:#000000;stroke-width:0.8;" x="476.618182" xlink:href="#m0df463fee2" y="756"/>
      </g>
     </g>
     <g id="text_11">
      <!-- 17 -->
      <g transform="translate(462.620682 779.716563)scale(0.22 -0.22)">
       <use xlink:href="#DejaVuSans-31"/>
       <use x="63.623047" xlink:href="#DejaVuSans-37"/>
      </g>
     </g>
    </g>
    <g id="xtick_12">
     <g id="line2d_23">
      <path clip-path="url(#p394306257a)" d="M 510.436364 756 
L 510.436364 103.68 
" style="fill:none;stroke:#b0b0b0;stroke-linecap:square;stroke-width:0.8;"/>
     </g>
     <g id="line2d_24">
      <g>
       <use style="stroke:#000000;stroke-width:0.8;" x="510.436364" xlink:href="#m0df463fee2" y="756"/>
      </g>
     </g>
     <g id="text_12">
      <!-- 18 -->
      <g transform="translate(496.438864 779.716563)scale(0.22 -0.22)">
       <use xlink:href="#DejaVuSans-31"/>
       <use x="63.623047" xlink:href="#DejaVuSans-38"/>
      </g>
     </g>
    </g>
    <g id="xtick_13">
     <g id="line2d_25">
      <path clip-path="url(#p394306257a)" d="M 544.254545 756 
L 544.254545 103.68 
" style="fill:none;stroke:#b0b0b0;stroke-linecap:square;stroke-width:0.8;"/>
     </g>
     <g id="line2d_26">
      <g>
       <use style="stroke:#000000;stroke-width:0.8;" x="544.254545" xlink:href="#m0df463fee2" y="756"/>
      </g>
     </g>
     <g id="text_13">
      <!-- 19 -->
      <g transform="translate(530.257045 779.716563)scale(0.22 -0.22)">
       <use xlink:href="#DejaVuSans-31"/>
       <use x="63.623047" xlink:href="#DejaVuSans-39"/>
      </g>
     </g>
    </g>
    <g id="xtick_14">
     <g id="line2d_27">
      <path clip-path="url(#p394306257a)" d="M 578.072727 756 
L 578.072727 103.68 
" style="fill:none;stroke:#b0b0b0;stroke-linecap:square;stroke-width:0.8;"/>
     </g>
     <g id="line2d_28">
      <g>
       <use style="stroke:#000000;stroke-width:0.8;" x="578.072727" xlink:href="#m0df463fee2" y="756"/>
      </g>
     </g>
     <g id="text_14">
      <!-- 20 -->
      <g transform="translate(564.075227 779.716563)scale(0.22 -0.22)">
       <use xlink:href="#DejaVuSans-32"/>
       <use x="63.623047" xlink:href="#DejaVuSans-30"/>
      </g>
     </g>
    </g>
    <g id="xtick_15">
     <g id="line2d_29">
      <path clip-path="url(#p394306257a)" d="M 611.890909 756 
L 611.890909 103.68 
" style="fill:none;stroke:#b0b0b0;stroke-linecap:square;stroke-width:0.8;"/>
     </g>
     <g id="line2d_30">
      <g>
       <use style="stroke:#000000;stroke-width:0.8;" x="611.890909" xlink:href="#m0df463fee2" y="756"/>
      </g>
     </g>
     <g id="text_15">
      <!-- 21 -->
      <g transform="translate(597.893409 779.716563)scale(0.22 -0.22)">
       <use xlink:href="#DejaVuSans-32"/>
       <use x="63.623047" xlink:href="#DejaVuSans-31"/>
      </g>
     </g>
    </g>
    <g id="xtick_16">
     <g id="line2d_31">
      <path clip-path="url(#p394306257a)" d="M 645.709091 756 
L 645.709091 103.68 
" style="fill:none;stroke:#b0b0b0;stroke-linecap:square;stroke-width:0.8;"/>
     </g>
     <g id="line2d_32">
      <g>
       <use style="stroke:#000000;stroke-width:0.8;" x="645.709091" xlink:href="#m0df463fee2" y="756"/>
      </g>
     </g>
     <g id="text_16">
      <!-- 22 -->
      <g transform="translate(631.711591 779.716563)scale(0.22 -0.22)">
       <use xlink:href="#DejaVuSans-32"/>
       <use x="63.623047" xlink:href="#DejaVuSans-32"/>
      </g>
     </g>
    </g>
    <g id="xtick_17">
     <g id="line2d_33">
      <path clip-path="url(#p394306257a)" d="M 679.527273 756 
L 679.527273 103.68 
" style="fill:none;stroke:#b0b0b0;stroke-linecap:square;stroke-width:0.8;"/>
     </g>
     <g id="line2d_34">
      <g>
       <use style="stroke:#000000;stroke-width:0.8;" x="679.527273" xlink:href="#m0df463fee2" y="756"/>
      </g>
     </g>
     <g id="text_17">
      <!-- 23 -->
      <g transform="translate(665.529773 779.716563)scale(0.22 -0.22)">
       <use xlink:href="#DejaVuSans-32"/>
       <use x="63.623047" xlink:href="#DejaVuSans-33"/>
      </g>
     </g>
    </g>
    <g id="xtick_18">
     <g id="line2d_35">
      <path clip-path="url(#p394306257a)" d="M 713.345455 756 
L 713.345455 103.68 
" style="fill:none;stroke:#b0b0b0;stroke-linecap:square;stroke-width:0.8;"/>
     </g>
     <g id="line2d_36">
      <g>
       <use style="stroke:#000000;stroke-width:0.8;" x="713.345455" xlink:href="#m0df463fee2" y="756"/>
      </g>
     </g>
     <g id="text_18">
      <!-- 24 -->
      <g transform="translate(699.347955 779.716563)scale(0.22 -0.22)">
       <use xlink:href="#DejaVuSans-32"/>
       <use x="63.623047" xlink:href="#DejaVuSans-34"/>
      </g>
     </g>
    </g>
    <g id="xtick_19">
     <g id="line2d_37">
      <path clip-path="url(#p394306257a)" d="M 747.163636 756 
L 747.163636 103.68 
" style="fill:none;stroke:#b0b0b0;stroke-linecap:square;stroke-width:0.8;"/>
     </g>
     <g id="line2d_38">
      <g>
       <use style="stroke:#000000;stroke-width:0.8;" x="747.163636" xlink:href="#m0df463fee2" y="756"/>
      </g>
     </g>
     <g id="text_19">
      <!-- 25 -->
      <g transform="translate(733.166136 779.716563)scale(0.22 -0.22)">
       <use xlink:href="#DejaVuSans-32"/>
       <use x="63.623047" xlink:href="#DejaVuSans-35"/>
      </g>
     </g>
    </g>
    <g id="text_20">
     <!-- Array length (2^) -->
     <g transform="translate(346.317969 805.008438)scale(0.22 -0.22)">
      <defs>
       <path d="M 2188 4044 
L 1331 1722 
L 3047 1722 
L 2188 4044 
z
M 1831 4666 
L 2547 4666 
L 4325 0 
L 3669 0 
L 3244 1197 
L 1141 1197 
L 716 0 
L 50 0 
L 1831 4666 
z
" id="DejaVuSans-41" transform="scale(0.015625)"/>
       <path d="M 2631 2963 
Q 2534 3019 2420 3045 
Q 2306 3072 2169 3072 
Q 1681 3072 1420 2755 
Q 1159 2438 1159 1844 
L 1159 0 
L 581 0 
L 581 3500 
L 1159 3500 
L 1159 2956 
Q 1341 3275 1631 3429 
Q 1922 3584 2338 3584 
Q 2397 3584 2469 3576 
Q 2541 3569 2628 3553 
L 2631 2963 
z
" id="DejaVuSans-72" transform="scale(0.015625)"/>
       <path d="M 2194 1759 
Q 1497 1759 1228 1600 
Q 959 1441 959 1056 
Q 959 750 1161 570 
Q 1363 391 1709 391 
Q 2188 391 2477 730 
Q 2766 1069 2766 1631 
L 2766 1759 
L 2194 1759 
z
M 3341 1997 
L 3341 0 
L 2766 0 
L 2766 531 
Q 2569 213 2275 61 
Q 1981 -91 1556 -91 
Q 1019 -91 701 211 
Q 384 513 384 1019 
Q 384 1609 779 1909 
Q 1175 2209 1959 2209 
L 2766 2209 
L 2766 2266 
Q 2766 2663 2505 2880 
Q 2244 3097 1772 3097 
Q 1472 3097 1187 3025 
Q 903 2953 641 2809 
L 641 3341 
Q 956 3463 1253 3523 
Q 1550 3584 1831 3584 
Q 2591 3584 2966 3190 
Q 3341 2797 3341 1997 
z
" id="DejaVuSans-61" transform="scale(0.015625)"/>
       <path d="M 2059 -325 
Q 1816 -950 1584 -1140 
Q 1353 -1331 966 -1331 
L 506 -1331 
L 506 -850 
L 844 -850 
Q 1081 -850 1212 -737 
Q 1344 -625 1503 -206 
L 1606 56 
L 191 3500 
L 800 3500 
L 1894 763 
L 2988 3500 
L 3597 3500 
L 2059 -325 
z
" id="DejaVuSans-79" transform="scale(0.015625)"/>
       <path id="DejaVuSans-20" transform="scale(0.015625)"/>
       <path d="M 603 4863 
L 1178 4863 
L 1178 0 
L 603 0 
L 603 4863 
z
" id="DejaVuSans-6c" transform="scale(0.015625)"/>
       <path d="M 3597 1894 
L 3597 1613 
L 953 1613 
Q 991 1019 1311 708 
Q 1631 397 2203 397 
Q 2534 397 2845 478 
Q 3156 559 3463 722 
L 3463 178 
Q 3153 47 2828 -22 
Q 2503 -91 2169 -91 
Q 1331 -91 842 396 
Q 353 884 353 1716 
Q 353 2575 817 3079 
Q 1281 3584 2069 3584 
Q 2775 3584 3186 3129 
Q 3597 2675 3597 1894 
z
M 3022 2063 
Q 3016 2534 2758 2815 
Q 2500 3097 2075 3097 
Q 1594 3097 1305 2825 
Q 1016 2553 972 2059 
L 3022 2063 
z
" id="DejaVuSans-65" transform="scale(0.015625)"/>
       <path d="M 3513 2113 
L 3513 0 
L 2938 0 
L 2938 2094 
Q 2938 2591 2744 2837 
Q 2550 3084 2163 3084 
Q 1697 3084 1428 2787 
Q 1159 2491 1159 1978 
L 1159 0 
L 581 0 
L 581 3500 
L 1159 3500 
L 1159 2956 
Q 1366 3272 1645 3428 
Q 1925 3584 2291 3584 
Q 2894 3584 3203 3211 
Q 3513 2838 3513 2113 
z
" id="DejaVuSans-6e" transform="scale(0.015625)"/>
       <path d="M 2906 1791 
Q 2906 2416 2648 2759 
Q 2391 3103 1925 3103 
Q 1463 3103 1205 2759 
Q 947 2416 947 1791 
Q 947 1169 1205 825 
Q 1463 481 1925 481 
Q 2391 481 2648 825 
Q 2906 1169 2906 1791 
z
M 3481 434 
Q 3481 -459 3084 -895 
Q 2688 -1331 1869 -1331 
Q 1566 -1331 1297 -1286 
Q 1028 -1241 775 -1147 
L 775 -588 
Q 1028 -725 1275 -790 
Q 1522 -856 1778 -856 
Q 2344 -856 2625 -561 
Q 2906 -266 2906 331 
L 2906 616 
Q 2728 306 2450 153 
Q 2172 0 1784 0 
Q 1141 0 747 490 
Q 353 981 353 1791 
Q 353 2603 747 3093 
Q 1141 3584 1784 3584 
Q 2172 3584 2450 3431 
Q 2728 3278 2906 2969 
L 2906 3500 
L 3481 3500 
L 3481 434 
z
" id="DejaVuSans-67" transform="scale(0.015625)"/>
       <path d="M 1172 4494 
L 1172 3500 
L 2356 3500 
L 2356 3053 
L 1172 3053 
L 1172 1153 
Q 1172 725 1289 603 
Q 1406 481 1766 481 
L 2356 481 
L 2356 0 
L 1766 0 
Q 1100 0 847 248 
Q 594 497 594 1153 
L 594 3053 
L 172 3053 
L 172 3500 
L 594 3500 
L 594 4494 
L 1172 4494 
z
" id="DejaVuSans-74" transform="scale(0.015625)"/>
       <path d="M 3513 2113 
L 3513 0 
L 2938 0 
L 2938 2094 
Q 2938 2591 2744 2837 
Q 2550 3084 2163 3084 
Q 1697 3084 1428 2787 
Q 1159 2491 1159 1978 
L 1159 0 
L 581 0 
L 581 4863 
L 1159 4863 
L 1159 2956 
Q 1366 3272 1645 3428 
Q 1925 3584 2291 3584 
Q 2894 3584 3203 3211 
Q 3513 2838 3513 2113 
z
" id="DejaVuSans-68" transform="scale(0.015625)"/>
       <path d="M 1984 4856 
Q 1566 4138 1362 3434 
Q 1159 2731 1159 2009 
Q 1159 1288 1364 580 
Q 1569 -128 1984 -844 
L 1484 -844 
Q 1016 -109 783 600 
Q 550 1309 550 2009 
Q 550 2706 781 3412 
Q 1013 4119 1484 4856 
L 1984 4856 
z
" id="DejaVuSans-28" transform="scale(0.015625)"/>
       <path d="M 2988 4666 
L 4684 2925 
L 4056 2925 
L 2681 4159 
L 1306 2925 
L 678 2925 
L 2375 4666 
L 2988 4666 
z
" id="DejaVuSans-5e" transform="scale(0.015625)"/>
       <path d="M 513 4856 
L 1013 4856 
Q 1481 4119 1714 3412 
Q 1947 2706 1947 2009 
Q 1947 1309 1714 600 
Q 1481 -109 1013 -844 
L 513 -844 
Q 928 -128 1133 580 
Q 1338 1288 1338 2009 
Q 1338 2731 1133 3434 
Q 928 4138 513 4856 
z
" id="DejaVuSans-29" transform="scale(0.015625)"/>
      </defs>
      <use xlink:href="#DejaVuSans-41"/>
      <use x="68.408203" xlink:href="#DejaVuSans-72"/>
      <use x="107.771484" xlink:href="#DejaVuSans-72"/>
      <use x="148.884766" xlink:href="#DejaVuSans-61"/>
      <use x="210.164062" xlink:href="#DejaVuSans-79"/>
      <use x="269.34375" xlink:href="#DejaVuSans-20"/>
      <use x="301.130859" xlink:href="#DejaVuSans-6c"/>
      <use x="328.914062" xlink:href="#DejaVuSans-65"/>
      <use x="390.4375" xlink:href="#DejaVuSans-6e"/>
      <use x="453.816406" xlink:href="#DejaVuSans-67"/>
      <use x="517.292969" xlink:href="#DejaVuSans-74"/>
      <use x="556.501953" xlink:href="#DejaVuSans-68"/>
      <use x="619.880859" xlink:href="#DejaVuSans-20"/>
      <use x="651.667969" xlink:href="#DejaVuSans-28"/>
      <use x="690.681641" xlink:href="#DejaVuSans-32"/>
      <use x="754.304688" xlink:href="#DejaVuSans-5e"/>
      <use x="838.09375" xlink:href="#DejaVuSans-29"/>
     </g>
    </g>
   </g>
   <g id="matplotlib.axis_2">
    <g id="ytick_1">
     <g id="line2d_39">
      <path clip-path="url(#p394306257a)" d="M 108 726.540251 
L 777.6 726.540251 
" style="fill:none;stroke:#b0b0b0;stroke-linecap:square;stroke-width:0.8;"/>
     </g>
     <g id="line2d_40">
      <defs>
       <path d="M 0 0 
L -3.5 0 
" id="mbf2c9dcfd5" style="stroke:#000000;stroke-width:0.8;"/>
      </defs>
      <g>
       <use style="stroke:#000000;stroke-width:0.8;" x="108" xlink:href="#mbf2c9dcfd5" y="726.540251"/>
      </g>
     </g>
     <g id="text_21">
      <!-- 0 -->
      <g transform="translate(87.0025 734.898533)scale(0.22 -0.22)">
       <use xlink:href="#DejaVuSans-30"/>
      </g>
     </g>
    </g>
    <g id="ytick_2">
     <g id="line2d_41">
      <path clip-path="url(#p394306257a)" d="M 108 650.076041 
L 777.6 650.076041 
" style="fill:none;stroke:#b0b0b0;stroke-linecap:square;stroke-width:0.8;"/>
     </g>
     <g id="line2d_42">
      <g>
       <use style="stroke:#000000;stroke-width:0.8;" x="108" xlink:href="#mbf2c9dcfd5" y="650.076041"/>
      </g>
     </g>
     <g id="text_22">
      <!-- 2 -->
      <g transform="translate(87.0025 658.434323)scale(0.22 -0.22)">
       <use xlink:href="#DejaVuSans-32"/>
      </g>
     </g>
    </g>
    <g id="ytick_3">
     <g id="line2d_43">
      <path clip-path="url(#p394306257a)" d="M 108 573.611831 
L 777.6 573.611831 
" style="fill:none;stroke:#b0b0b0;stroke-linecap:square;stroke-width:0.8;"/>
     </g>
     <g id="line2d_44">
      <g>
       <use style="stroke:#000000;stroke-width:0.8;" x="108" xlink:href="#mbf2c9dcfd5" y="573.611831"/>
      </g>
     </g>
     <g id="text_23">
      <!-- 4 -->
      <g transform="translate(87.0025 581.970112)scale(0.22 -0.22)">
       <use xlink:href="#DejaVuSans-34"/>
      </g>
     </g>
    </g>
    <g id="ytick_4">
     <g id="line2d_45">
      <path clip-path="url(#p394306257a)" d="M 108 497.147621 
L 777.6 497.147621 
" style="fill:none;stroke:#b0b0b0;stroke-linecap:square;stroke-width:0.8;"/>
     </g>
     <g id="line2d_46">
      <g>
       <use style="stroke:#000000;stroke-width:0.8;" x="108" xlink:href="#mbf2c9dcfd5" y="497.147621"/>
      </g>
     </g>
     <g id="text_24">
      <!-- 6 -->
      <g transform="translate(87.0025 505.505902)scale(0.22 -0.22)">
       <use xlink:href="#DejaVuSans-36"/>
      </g>
     </g>
    </g>
    <g id="ytick_5">
     <g id="line2d_47">
      <path clip-path="url(#p394306257a)" d="M 108 420.683411 
L 777.6 420.683411 
" style="fill:none;stroke:#b0b0b0;stroke-linecap:square;stroke-width:0.8;"/>
     </g>
     <g id="line2d_48">
      <g>
       <use style="stroke:#000000;stroke-width:0.8;" x="108" xlink:href="#mbf2c9dcfd5" y="420.683411"/>
      </g>
     </g>
     <g id="text_25">
      <!-- 8 -->
      <g transform="translate(87.0025 429.041692)scale(0.22 -0.22)">
       <use xlink:href="#DejaVuSans-38"/>
      </g>
     </g>
    </g>
    <g id="ytick_6">
     <g id="line2d_49">
      <path clip-path="url(#p394306257a)" d="M 108 344.219201 
L 777.6 344.219201 
" style="fill:none;stroke:#b0b0b0;stroke-linecap:square;stroke-width:0.8;"/>
     </g>
     <g id="line2d_50">
      <g>
       <use style="stroke:#000000;stroke-width:0.8;" x="108" xlink:href="#mbf2c9dcfd5" y="344.219201"/>
      </g>
     </g>
     <g id="text_26">
      <!-- 10 -->
      <g transform="translate(73.005 352.577482)scale(0.22 -0.22)">
       <use xlink:href="#DejaVuSans-31"/>
       <use x="63.623047" xlink:href="#DejaVuSans-30"/>
      </g>
     </g>
    </g>
    <g id="ytick_7">
     <g id="line2d_51">
      <path clip-path="url(#p394306257a)" d="M 108 267.754991 
L 777.6 267.754991 
" style="fill:none;stroke:#b0b0b0;stroke-linecap:square;stroke-width:0.8;"/>
     </g>
     <g id="line2d_52">
      <g>
       <use style="stroke:#000000;stroke-width:0.8;" x="108" xlink:href="#mbf2c9dcfd5" y="267.754991"/>
      </g>
     </g>
     <g id="text_27">
      <!-- 12 -->
      <g transform="translate(73.005 276.113272)scale(0.22 -0.22)">
       <use xlink:href="#DejaVuSans-31"/>
       <use x="63.623047" xlink:href="#DejaVuSans-32"/>
      </g>
     </g>
    </g>
    <g id="ytick_8">
     <g id="line2d_53">
      <path clip-path="url(#p394306257a)" d="M 108 191.29078 
L 777.6 191.29078 
" style="fill:none;stroke:#b0b0b0;stroke-linecap:square;stroke-width:0.8;"/>
     </g>
     <g id="line2d_54">
      <g>
       <use style="stroke:#000000;stroke-width:0.8;" x="108" xlink:href="#mbf2c9dcfd5" y="191.29078"/>
      </g>
     </g>
     <g id="text_28">
      <!-- 14 -->
      <g transform="translate(73.005 199.649062)scale(0.22 -0.22)">
       <use xlink:href="#DejaVuSans-31"/>
       <use x="63.623047" xlink:href="#DejaVuSans-34"/>
      </g>
     </g>
    </g>
    <g id="ytick_9">
     <g id="line2d_55">
      <path clip-path="url(#p394306257a)" d="M 108 114.82657 
L 777.6 114.82657 
" style="fill:none;stroke:#b0b0b0;stroke-linecap:square;stroke-width:0.8;"/>
     </g>
     <g id="line2d_56">
      <g>
       <use style="stroke:#000000;stroke-width:0.8;" x="108" xlink:href="#mbf2c9dcfd5" y="114.82657"/>
      </g>
     </g>
     <g id="text_29">
      <!-- 16 -->
      <g transform="translate(73.005 123.184851)scale(0.22 -0.22)">
       <use xlink:href="#DejaVuSans-31"/>
       <use x="63.623047" xlink:href="#DejaVuSans-36"/>
      </g>
     </g>
    </g>
    <g id="text_30">
     <!-- Time (ms.) -->
     <g transform="translate(64.429688 488.774219)rotate(-90)scale(0.22 -0.22)">
      <defs>
       <path d="M -19 4666 
L 3928 4666 
L 3928 4134 
L 2272 4134 
L 2272 0 
L 1638 0 
L 1638 4134 
L -19 4134 
L -19 4666 
z
" id="DejaVuSans-54" transform="scale(0.015625)"/>
       <path d="M 603 3500 
L 1178 3500 
L 1178 0 
L 603 0 
L 603 3500 
z
M 603 4863 
L 1178 4863 
L 1178 4134 
L 603 4134 
L 603 4863 
z
" id="DejaVuSans-69" transform="scale(0.015625)"/>
       <path d="M 3328 2828 
Q 3544 3216 3844 3400 
Q 4144 3584 4550 3584 
Q 5097 3584 5394 3201 
Q 5691 2819 5691 2113 
L 5691 0 
L 5113 0 
L 5113 2094 
Q 5113 2597 4934 2840 
Q 4756 3084 4391 3084 
Q 3944 3084 3684 2787 
Q 3425 2491 3425 1978 
L 3425 0 
L 2847 0 
L 2847 2094 
Q 2847 2600 2669 2842 
Q 2491 3084 2119 3084 
Q 1678 3084 1418 2786 
Q 1159 2488 1159 1978 
L 1159 0 
L 581 0 
L 581 3500 
L 1159 3500 
L 1159 2956 
Q 1356 3278 1631 3431 
Q 1906 3584 2284 3584 
Q 2666 3584 2933 3390 
Q 3200 3197 3328 2828 
z
" id="DejaVuSans-6d" transform="scale(0.015625)"/>
       <path d="M 2834 3397 
L 2834 2853 
Q 2591 2978 2328 3040 
Q 2066 3103 1784 3103 
Q 1356 3103 1142 2972 
Q 928 2841 928 2578 
Q 928 2378 1081 2264 
Q 1234 2150 1697 2047 
L 1894 2003 
Q 2506 1872 2764 1633 
Q 3022 1394 3022 966 
Q 3022 478 2636 193 
Q 2250 -91 1575 -91 
Q 1294 -91 989 -36 
Q 684 19 347 128 
L 347 722 
Q 666 556 975 473 
Q 1284 391 1588 391 
Q 1994 391 2212 530 
Q 2431 669 2431 922 
Q 2431 1156 2273 1281 
Q 2116 1406 1581 1522 
L 1381 1569 
Q 847 1681 609 1914 
Q 372 2147 372 2553 
Q 372 3047 722 3315 
Q 1072 3584 1716 3584 
Q 2034 3584 2315 3537 
Q 2597 3491 2834 3397 
z
" id="DejaVuSans-73" transform="scale(0.015625)"/>
       <path d="M 684 794 
L 1344 794 
L 1344 0 
L 684 0 
L 684 794 
z
" id="DejaVuSans-2e" transform="scale(0.015625)"/>
      </defs>
      <use xlink:href="#DejaVuSans-54"/>
      <use x="57.958984" xlink:href="#DejaVuSans-69"/>
      <use x="85.742188" xlink:href="#DejaVuSans-6d"/>
      <use x="183.154297" xlink:href="#DejaVuSans-65"/>
      <use x="244.677734" xlink:href="#DejaVuSans-20"/>
      <use x="276.464844" xlink:href="#DejaVuSans-28"/>
      <use x="315.478516" xlink:href="#DejaVuSans-6d"/>
      <use x="412.890625" xlink:href="#DejaVuSans-73"/>
      <use x="464.990234" xlink:href="#DejaVuSans-2e"/>
      <use x="496.777344" xlink:href="#DejaVuSans-29"/>
     </g>
    </g>
   </g>
   <g id="line2d_57">
    <path clip-path="url(#p394306257a)" d="M 138.436364 719.390848 
L 172.254545 720.308418 
L 206.072727 720.384883 
L 239.890909 720.040794 
L 273.709091 719.62024 
L 307.527273 719.887865 
L 341.345455 719.696705 
L 375.163636 719.237919 
L 408.981818 718.549741 
L 442.8 718.16742 
L 476.618182 717.517475 
L 510.436364 715.873494 
L 544.254545 713.6178 
L 578.072727 710.138678 
L 611.890909 700.848277 
L 645.709091 683.10858 
L 679.527273 639.026963 
L 713.345455 558.280757 
L 747.163636 398.202933 
" style="fill:none;stroke:#1f77b4;stroke-linecap:square;stroke-width:1.5;"/>
    <defs>
     <path d="M 0 3 
C 0.795609 3 1.55874 2.683901 2.12132 2.12132 
C 2.683901 1.55874 3 0.795609 3 0 
C 3 -0.795609 2.683901 -1.55874 2.12132 -2.12132 
C 1.55874 -2.683901 0.795609 -3 0 -3 
C -0.795609 -3 -1.55874 -2.683901 -2.12132 -2.12132 
C -2.683901 -1.55874 -3 -0.795609 -3 0 
C -3 0.795609 -2.683901 1.55874 -2.12132 2.12132 
C -1.55874 2.683901 -0.795609 3 0 3 
z
" id="m3215b6bc12" style="stroke:#1f77b4;"/>
    </defs>
    <g clip-path="url(#p394306257a)">
     <use style="fill:#1f77b4;stroke:#1f77b4;" x="138.436364" xlink:href="#m3215b6bc12" y="719.390848"/>
     <use style="fill:#1f77b4;stroke:#1f77b4;" x="172.254545" xlink:href="#m3215b6bc12" y="720.308418"/>
     <use style="fill:#1f77b4;stroke:#1f77b4;" x="206.072727" xlink:href="#m3215b6bc12" y="720.384883"/>
     <use style="fill:#1f77b4;stroke:#1f77b4;" x="239.890909" xlink:href="#m3215b6bc12" y="720.040794"/>
     <use style="fill:#1f77b4;stroke:#1f77b4;" x="273.709091" xlink:href="#m3215b6bc12" y="719.62024"/>
     <use style="fill:#1f77b4;stroke:#1f77b4;" x="307.527273" xlink:href="#m3215b6bc12" y="719.887865"/>
     <use style="fill:#1f77b4;stroke:#1f77b4;" x="341.345455" xlink:href="#m3215b6bc12" y="719.696705"/>
     <use style="fill:#1f77b4;stroke:#1f77b4;" x="375.163636" xlink:href="#m3215b6bc12" y="719.237919"/>
     <use style="fill:#1f77b4;stroke:#1f77b4;" x="408.981818" xlink:href="#m3215b6bc12" y="718.549741"/>
     <use style="fill:#1f77b4;stroke:#1f77b4;" x="442.8" xlink:href="#m3215b6bc12" y="718.16742"/>
     <use style="fill:#1f77b4;stroke:#1f77b4;" x="476.618182" xlink:href="#m3215b6bc12" y="717.517475"/>
     <use style="fill:#1f77b4;stroke:#1f77b4;" x="510.436364" xlink:href="#m3215b6bc12" y="715.873494"/>
     <use style="fill:#1f77b4;stroke:#1f77b4;" x="544.254545" xlink:href="#m3215b6bc12" y="713.6178"/>
     <use style="fill:#1f77b4;stroke:#1f77b4;" x="578.072727" xlink:href="#m3215b6bc12" y="710.138678"/>
     <use style="fill:#1f77b4;stroke:#1f77b4;" x="611.890909" xlink:href="#m3215b6bc12" y="700.848277"/>
     <use style="fill:#1f77b4;stroke:#1f77b4;" x="645.709091" xlink:href="#m3215b6bc12" y="683.10858"/>
     <use style="fill:#1f77b4;stroke:#1f77b4;" x="679.527273" xlink:href="#m3215b6bc12" y="639.026963"/>
     <use style="fill:#1f77b4;stroke:#1f77b4;" x="713.345455" xlink:href="#m3215b6bc12" y="558.280757"/>
     <use style="fill:#1f77b4;stroke:#1f77b4;" x="747.163636" xlink:href="#m3215b6bc12" y="398.202933"/>
    </g>
   </g>
   <g id="line2d_58">
    <path clip-path="url(#p394306257a)" d="M 138.436364 726.349091 
L 172.254545 726.349091 
L 206.072727 726.349091 
L 239.890909 726.272627 
L 273.709091 726.349091 
L 307.527273 726.310859 
L 341.345455 726.272627 
L 375.163636 726.005002 
L 408.981818 726.119698 
L 442.8 725.852074 
L 476.618182 725.355056 
L 510.436364 723.711076 
L 544.254545 720.843668 
L 578.072727 714.764763 
L 611.890909 708.035913 
L 645.709091 678.941281 
L 679.527273 624.80462 
L 713.345455 509.764216 
L 747.163636 286.947507 
" style="fill:none;stroke:#ff7f0e;stroke-linecap:square;stroke-width:1.5;"/>
    <defs>
     <path d="M 0 3 
C 0.795609 3 1.55874 2.683901 2.12132 2.12132 
C 2.683901 1.55874 3 0.795609 3 0 
C 3 -0.795609 2.683901 -1.55874 2.12132 -2.12132 
C 1.55874 -2.683901 0.795609 -3 0 -3 
C -0.795609 -3 -1.55874 -2.683901 -2.12132 -2.12132 
C -2.683901 -1.55874 -3 -0.795609 -3 0 
C -3 0.795609 -2.683901 1.55874 -2.12132 2.12132 
C -1.55874 2.683901 -0.795609 3 0 3 
z
" id="m9d1bfd298a" style="stroke:#ff7f0e;"/>
    </defs>
    <g clip-path="url(#p394306257a)">
     <use style="fill:#ff7f0e;stroke:#ff7f0e;" x="138.436364" xlink:href="#m9d1bfd298a" y="726.349091"/>
     <use style="fill:#ff7f0e;stroke:#ff7f0e;" x="172.254545" xlink:href="#m9d1bfd298a" y="726.349091"/>
     <use style="fill:#ff7f0e;stroke:#ff7f0e;" x="206.072727" xlink:href="#m9d1bfd298a" y="726.349091"/>
     <use style="fill:#ff7f0e;stroke:#ff7f0e;" x="239.890909" xlink:href="#m9d1bfd298a" y="726.272627"/>
     <use style="fill:#ff7f0e;stroke:#ff7f0e;" x="273.709091" xlink:href="#m9d1bfd298a" y="726.349091"/>
     <use style="fill:#ff7f0e;stroke:#ff7f0e;" x="307.527273" xlink:href="#m9d1bfd298a" y="726.310859"/>
     <use style="fill:#ff7f0e;stroke:#ff7f0e;" x="341.345455" xlink:href="#m9d1bfd298a" y="726.272627"/>
     <use style="fill:#ff7f0e;stroke:#ff7f0e;" x="375.163636" xlink:href="#m9d1bfd298a" y="726.005002"/>
     <use style="fill:#ff7f0e;stroke:#ff7f0e;" x="408.981818" xlink:href="#m9d1bfd298a" y="726.119698"/>
     <use style="fill:#ff7f0e;stroke:#ff7f0e;" x="442.8" xlink:href="#m9d1bfd298a" y="725.852074"/>
     <use style="fill:#ff7f0e;stroke:#ff7f0e;" x="476.618182" xlink:href="#m9d1bfd298a" y="725.355056"/>
     <use style="fill:#ff7f0e;stroke:#ff7f0e;" x="510.436364" xlink:href="#m9d1bfd298a" y="723.711076"/>
     <use style="fill:#ff7f0e;stroke:#ff7f0e;" x="544.254545" xlink:href="#m9d1bfd298a" y="720.843668"/>
     <use style="fill:#ff7f0e;stroke:#ff7f0e;" x="578.072727" xlink:href="#m9d1bfd298a" y="714.764763"/>
     <use style="fill:#ff7f0e;stroke:#ff7f0e;" x="611.890909" xlink:href="#m9d1bfd298a" y="708.035913"/>
     <use style="fill:#ff7f0e;stroke:#ff7f0e;" x="645.709091" xlink:href="#m9d1bfd298a" y="678.941281"/>
     <use style="fill:#ff7f0e;stroke:#ff7f0e;" x="679.527273" xlink:href="#m9d1bfd298a" y="624.80462"/>
     <use style="fill:#ff7f0e;stroke:#ff7f0e;" x="713.345455" xlink:href="#m9d1bfd298a" y="509.764216"/>
     <use style="fill:#ff7f0e;stroke:#ff7f0e;" x="747.163636" xlink:href="#m9d1bfd298a" y="286.947507"/>
    </g>
   </g>
   <g id="line2d_59">
    <path clip-path="url(#p394306257a)" d="M 138.436364 724.284557 
L 172.254545 724.743342 
L 206.072727 725.010967 
L 239.890909 725.202128 
L 273.709091 725.24036 
L 307.527273 725.202128 
L 341.345455 725.087431 
L 375.163636 724.896271 
L 408.981818 724.437486 
L 442.8 723.405219 
L 476.618182 721.493614 
L 510.436364 717.938028 
L 544.254545 713.847193 
L 578.072727 706.850717 
L 611.890909 690.449144 
L 645.709091 653.211074 
L 679.527273 571.814922 
L 713.345455 429.897348 
L 747.163636 133.330909 
" style="fill:none;stroke:#2ca02c;stroke-linecap:square;stroke-width:1.5;"/>
    <defs>
     <path d="M 0 3 
C 0.795609 3 1.55874 2.683901 2.12132 2.12132 
C 2.683901 1.55874 3 0.795609 3 0 
C 3 -0.795609 2.683901 -1.55874 2.12132 -2.12132 
C 1.55874 -2.683901 0.795609 -3 0 -3 
C -0.795609 -3 -1.55874 -2.683901 -2.12132 -2.12132 
C -2.683901 -1.55874 -3 -0.795609 -3 0 
C -3 0.795609 -2.683901 1.55874 -2.12132 2.12132 
C -1.55874 2.683901 -0.795609 3 0 3 
z
" id="mbfe7736dfc" style="stroke:#2ca02c;"/>
    </defs>
    <g clip-path="url(#p394306257a)">
     <use style="fill:#2ca02c;stroke:#2ca02c;" x="138.436364" xlink:href="#mbfe7736dfc" y="724.284557"/>
     <use style="fill:#2ca02c;stroke:#2ca02c;" x="172.254545" xlink:href="#mbfe7736dfc" y="724.743342"/>
     <use style="fill:#2ca02c;stroke:#2ca02c;" x="206.072727" xlink:href="#mbfe7736dfc" y="725.010967"/>
     <use style="fill:#2ca02c;stroke:#2ca02c;" x="239.890909" xlink:href="#mbfe7736dfc" y="725.202128"/>
     <use style="fill:#2ca02c;stroke:#2ca02c;" x="273.709091" xlink:href="#mbfe7736dfc" y="725.24036"/>
     <use style="fill:#2ca02c;stroke:#2ca02c;" x="307.527273" xlink:href="#mbfe7736dfc" y="725.202128"/>
     <use style="fill:#2ca02c;stroke:#2ca02c;" x="341.345455" xlink:href="#mbfe7736dfc" y="725.087431"/>
     <use style="fill:#2ca02c;stroke:#2ca02c;" x="375.163636" xlink:href="#mbfe7736dfc" y="724.896271"/>
     <use style="fill:#2ca02c;stroke:#2ca02c;" x="408.981818" xlink:href="#mbfe7736dfc" y="724.437486"/>
     <use style="fill:#2ca02c;stroke:#2ca02c;" x="442.8" xlink:href="#mbfe7736dfc" y="723.405219"/>
     <use style="fill:#2ca02c;stroke:#2ca02c;" x="476.618182" xlink:href="#mbfe7736dfc" y="721.493614"/>
     <use style="fill:#2ca02c;stroke:#2ca02c;" x="510.436364" xlink:href="#mbfe7736dfc" y="717.938028"/>
     <use style="fill:#2ca02c;stroke:#2ca02c;" x="544.254545" xlink:href="#mbfe7736dfc" y="713.847193"/>
     <use style="fill:#2ca02c;stroke:#2ca02c;" x="578.072727" xlink:href="#mbfe7736dfc" y="706.850717"/>
     <use style="fill:#2ca02c;stroke:#2ca02c;" x="611.890909" xlink:href="#mbfe7736dfc" y="690.449144"/>
     <use style="fill:#2ca02c;stroke:#2ca02c;" x="645.709091" xlink:href="#mbfe7736dfc" y="653.211074"/>
     <use style="fill:#2ca02c;stroke:#2ca02c;" x="679.527273" xlink:href="#mbfe7736dfc" y="571.814922"/>
     <use style="fill:#2ca02c;stroke:#2ca02c;" x="713.345455" xlink:href="#mbfe7736dfc" y="429.897348"/>
     <use style="fill:#2ca02c;stroke:#2ca02c;" x="747.163636" xlink:href="#mbfe7736dfc" y="133.330909"/>
    </g>
   </g>
   <g id="patch_3">
    <path d="M 108 756 
L 108 103.68 
" style="fill:none;stroke:#000000;stroke-linecap:square;stroke-linejoin:miter;stroke-width:0.8;"/>
   </g>
   <g id="patch_4">
    <path d="M 777.6 756 
L 777.6 103.68 
" style="fill:none;stroke:#000000;stroke-linecap:square;stroke-linejoin:miter;stroke-width:0.8;"/>
   </g>
   <g id="patch_5">
    <path d="M 108 756 
L 777.6 756 
" style="fill:none;stroke:#000000;stroke-linecap:square;stroke-linejoin:miter;stroke-width:0.8;"/>
   </g>
   <g id="patch_6">
    <path d="M 108 103.68 
L 777.6 103.68 
" style="fill:none;stroke:#000000;stroke-linecap:square;stroke-linejoin:miter;stroke-width:0.8;"/>
   </g>
   <g id="text_31">
    <!-- Fast Implementations -->
    <g transform="translate(300.386437 97.68)scale(0.264 -0.264)">
     <defs>
      <path d="M 628 4666 
L 3309 4666 
L 3309 4134 
L 1259 4134 
L 1259 2759 
L 3109 2759 
L 3109 2228 
L 1259 2228 
L 1259 0 
L 628 0 
L 628 4666 
z
" id="DejaVuSans-46" transform="scale(0.015625)"/>
      <path d="M 628 4666 
L 1259 4666 
L 1259 0 
L 628 0 
L 628 4666 
z
" id="DejaVuSans-49" transform="scale(0.015625)"/>
      <path d="M 1159 525 
L 1159 -1331 
L 581 -1331 
L 581 3500 
L 1159 3500 
L 1159 2969 
Q 1341 3281 1617 3432 
Q 1894 3584 2278 3584 
Q 2916 3584 3314 3078 
Q 3713 2572 3713 1747 
Q 3713 922 3314 415 
Q 2916 -91 2278 -91 
Q 1894 -91 1617 61 
Q 1341 213 1159 525 
z
M 3116 1747 
Q 3116 2381 2855 2742 
Q 2594 3103 2138 3103 
Q 1681 3103 1420 2742 
Q 1159 2381 1159 1747 
Q 1159 1113 1420 752 
Q 1681 391 2138 391 
Q 2594 391 2855 752 
Q 3116 1113 3116 1747 
z
" id="DejaVuSans-70" transform="scale(0.015625)"/>
      <path d="M 1959 3097 
Q 1497 3097 1228 2736 
Q 959 2375 959 1747 
Q 959 1119 1226 758 
Q 1494 397 1959 397 
Q 2419 397 2687 759 
Q 2956 1122 2956 1747 
Q 2956 2369 2687 2733 
Q 2419 3097 1959 3097 
z
M 1959 3584 
Q 2709 3584 3137 3096 
Q 3566 2609 3566 1747 
Q 3566 888 3137 398 
Q 2709 -91 1959 -91 
Q 1206 -91 779 398 
Q 353 888 353 1747 
Q 353 2609 779 3096 
Q 1206 3584 1959 3584 
z
" id="DejaVuSans-6f" transform="scale(0.015625)"/>
     </defs>
     <use xlink:href="#DejaVuSans-46"/>
     <use x="48.394531" xlink:href="#DejaVuSans-61"/>
     <use x="109.673828" xlink:href="#DejaVuSans-73"/>
     <use x="161.773438" xlink:href="#DejaVuSans-74"/>
     <use x="200.982422" xlink:href="#DejaVuSans-20"/>
     <use x="232.769531" xlink:href="#DejaVuSans-49"/>
     <use x="262.261719" xlink:href="#DejaVuSans-6d"/>
     <use x="359.673828" xlink:href="#DejaVuSans-70"/>
     <use x="423.150391" xlink:href="#DejaVuSans-6c"/>
     <use x="450.933594" xlink:href="#DejaVuSans-65"/>
     <use x="512.457031" xlink:href="#DejaVuSans-6d"/>
     <use x="609.869141" xlink:href="#DejaVuSans-65"/>
     <use x="671.392578" xlink:href="#DejaVuSans-6e"/>
     <use x="734.771484" xlink:href="#DejaVuSans-74"/>
     <use x="773.980469" xlink:href="#DejaVuSans-61"/>
     <use x="835.259766" xlink:href="#DejaVuSans-74"/>
     <use x="874.46875" xlink:href="#DejaVuSans-69"/>
     <use x="902.251953" xlink:href="#DejaVuSans-6f"/>
     <use x="963.433594" xlink:href="#DejaVuSans-6e"/>
     <use x="1026.8125" xlink:href="#DejaVuSans-73"/>
    </g>
   </g>
   <g id="legend_1">
    <g id="patch_7">
     <path d="M 123.4 218.155625 
L 418.320312 218.155625 
Q 422.720312 218.155625 422.720312 213.755625 
L 422.720312 119.08 
Q 422.720312 114.68 418.320312 114.68 
L 123.4 114.68 
Q 119 114.68 119 119.08 
L 119 213.755625 
Q 119 218.155625 123.4 218.155625 
z
" style="fill:#ffffff;opacity:0.8;stroke:#cccccc;stroke-linejoin:miter;"/>
    </g>
    <g id="line2d_60">
     <path d="M 127.8 132.496563 
L 171.8 132.496563 
" style="fill:none;stroke:#1f77b4;stroke-linecap:square;stroke-width:1.5;"/>
    </g>
    <g id="line2d_61">
     <g>
      <use style="fill:#1f77b4;stroke:#1f77b4;" x="149.8" xlink:href="#m3215b6bc12" y="132.496563"/>
     </g>
    </g>
    <g id="text_32">
     <!-- Cython CUDA Kernel -->
     <g transform="translate(189.4 140.196563)scale(0.22 -0.22)">
      <defs>
       <path d="M 4122 4306 
L 4122 3641 
Q 3803 3938 3442 4084 
Q 3081 4231 2675 4231 
Q 1875 4231 1450 3742 
Q 1025 3253 1025 2328 
Q 1025 1406 1450 917 
Q 1875 428 2675 428 
Q 3081 428 3442 575 
Q 3803 722 4122 1019 
L 4122 359 
Q 3791 134 3420 21 
Q 3050 -91 2638 -91 
Q 1578 -91 968 557 
Q 359 1206 359 2328 
Q 359 3453 968 4101 
Q 1578 4750 2638 4750 
Q 3056 4750 3426 4639 
Q 3797 4528 4122 4306 
z
" id="DejaVuSans-43" transform="scale(0.015625)"/>
       <path d="M 556 4666 
L 1191 4666 
L 1191 1831 
Q 1191 1081 1462 751 
Q 1734 422 2344 422 
Q 2950 422 3222 751 
Q 3494 1081 3494 1831 
L 3494 4666 
L 4128 4666 
L 4128 1753 
Q 4128 841 3676 375 
Q 3225 -91 2344 -91 
Q 1459 -91 1007 375 
Q 556 841 556 1753 
L 556 4666 
z
" id="DejaVuSans-55" transform="scale(0.015625)"/>
       <path d="M 1259 4147 
L 1259 519 
L 2022 519 
Q 2988 519 3436 956 
Q 3884 1394 3884 2338 
Q 3884 3275 3436 3711 
Q 2988 4147 2022 4147 
L 1259 4147 
z
M 628 4666 
L 1925 4666 
Q 3281 4666 3915 4102 
Q 4550 3538 4550 2338 
Q 4550 1131 3912 565 
Q 3275 0 1925 0 
L 628 0 
L 628 4666 
z
" id="DejaVuSans-44" transform="scale(0.015625)"/>
       <path d="M 628 4666 
L 1259 4666 
L 1259 2694 
L 3353 4666 
L 4166 4666 
L 1850 2491 
L 4331 0 
L 3500 0 
L 1259 2247 
L 1259 0 
L 628 0 
L 628 4666 
z
" id="DejaVuSans-4b" transform="scale(0.015625)"/>
      </defs>
      <use xlink:href="#DejaVuSans-43"/>
      <use x="69.824219" xlink:href="#DejaVuSans-79"/>
      <use x="129.003906" xlink:href="#DejaVuSans-74"/>
      <use x="168.212891" xlink:href="#DejaVuSans-68"/>
      <use x="231.591797" xlink:href="#DejaVuSans-6f"/>
      <use x="292.773438" xlink:href="#DejaVuSans-6e"/>
      <use x="356.152344" xlink:href="#DejaVuSans-20"/>
      <use x="387.939453" xlink:href="#DejaVuSans-43"/>
      <use x="457.763672" xlink:href="#DejaVuSans-55"/>
      <use x="530.957031" xlink:href="#DejaVuSans-44"/>
      <use x="606.208984" xlink:href="#DejaVuSans-41"/>
      <use x="674.617188" xlink:href="#DejaVuSans-20"/>
      <use x="706.404297" xlink:href="#DejaVuSans-4b"/>
      <use x="766.980469" xlink:href="#DejaVuSans-65"/>
      <use x="828.503906" xlink:href="#DejaVuSans-72"/>
      <use x="867.867188" xlink:href="#DejaVuSans-6e"/>
      <use x="931.246094" xlink:href="#DejaVuSans-65"/>
      <use x="992.769531" xlink:href="#DejaVuSans-6c"/>
     </g>
    </g>
    <g id="line2d_62">
     <path d="M 127.8 164.788438 
L 171.8 164.788438 
" style="fill:none;stroke:#ff7f0e;stroke-linecap:square;stroke-width:1.5;"/>
    </g>
    <g id="line2d_63">
     <g>
      <use style="fill:#ff7f0e;stroke:#ff7f0e;" x="149.8" xlink:href="#m9d1bfd298a" y="164.788438"/>
     </g>
    </g>
    <g id="text_33">
     <!-- Python Numpy -->
     <g transform="translate(189.4 172.488438)scale(0.22 -0.22)">
      <defs>
       <path d="M 1259 4147 
L 1259 2394 
L 2053 2394 
Q 2494 2394 2734 2622 
Q 2975 2850 2975 3272 
Q 2975 3691 2734 3919 
Q 2494 4147 2053 4147 
L 1259 4147 
z
M 628 4666 
L 2053 4666 
Q 2838 4666 3239 4311 
Q 3641 3956 3641 3272 
Q 3641 2581 3239 2228 
Q 2838 1875 2053 1875 
L 1259 1875 
L 1259 0 
L 628 0 
L 628 4666 
z
" id="DejaVuSans-50" transform="scale(0.015625)"/>
       <path d="M 628 4666 
L 1478 4666 
L 3547 763 
L 3547 4666 
L 4159 4666 
L 4159 0 
L 3309 0 
L 1241 3903 
L 1241 0 
L 628 0 
L 628 4666 
z
" id="DejaVuSans-4e" transform="scale(0.015625)"/>
       <path d="M 544 1381 
L 544 3500 
L 1119 3500 
L 1119 1403 
Q 1119 906 1312 657 
Q 1506 409 1894 409 
Q 2359 409 2629 706 
Q 2900 1003 2900 1516 
L 2900 3500 
L 3475 3500 
L 3475 0 
L 2900 0 
L 2900 538 
Q 2691 219 2414 64 
Q 2138 -91 1772 -91 
Q 1169 -91 856 284 
Q 544 659 544 1381 
z
M 1991 3584 
L 1991 3584 
z
" id="DejaVuSans-75" transform="scale(0.015625)"/>
      </defs>
      <use xlink:href="#DejaVuSans-50"/>
      <use x="60.302734" xlink:href="#DejaVuSans-79"/>
      <use x="119.482422" xlink:href="#DejaVuSans-74"/>
      <use x="158.691406" xlink:href="#DejaVuSans-68"/>
      <use x="222.070312" xlink:href="#DejaVuSans-6f"/>
      <use x="283.251953" xlink:href="#DejaVuSans-6e"/>
      <use x="346.630859" xlink:href="#DejaVuSans-20"/>
      <use x="378.417969" xlink:href="#DejaVuSans-4e"/>
      <use x="453.222656" xlink:href="#DejaVuSans-75"/>
      <use x="516.601562" xlink:href="#DejaVuSans-6d"/>
      <use x="614.013672" xlink:href="#DejaVuSans-70"/>
      <use x="677.490234" xlink:href="#DejaVuSans-79"/>
     </g>
    </g>
    <g id="line2d_64">
     <path d="M 127.8 197.080313 
L 171.8 197.080313 
" style="fill:none;stroke:#2ca02c;stroke-linecap:square;stroke-width:1.5;"/>
    </g>
    <g id="line2d_65">
     <g>
      <use style="fill:#2ca02c;stroke:#2ca02c;" x="149.8" xlink:href="#mbfe7736dfc" y="197.080313"/>
     </g>
    </g>
    <g id="text_34">
     <!-- Python GPU Pytorch -->
     <g transform="translate(189.4 204.780313)scale(0.22 -0.22)">
      <defs>
       <path d="M 3809 666 
L 3809 1919 
L 2778 1919 
L 2778 2438 
L 4434 2438 
L 4434 434 
Q 4069 175 3628 42 
Q 3188 -91 2688 -91 
Q 1594 -91 976 548 
Q 359 1188 359 2328 
Q 359 3472 976 4111 
Q 1594 4750 2688 4750 
Q 3144 4750 3555 4637 
Q 3966 4525 4313 4306 
L 4313 3634 
Q 3963 3931 3569 4081 
Q 3175 4231 2741 4231 
Q 1884 4231 1454 3753 
Q 1025 3275 1025 2328 
Q 1025 1384 1454 906 
Q 1884 428 2741 428 
Q 3075 428 3337 486 
Q 3600 544 3809 666 
z
" id="DejaVuSans-47" transform="scale(0.015625)"/>
       <path d="M 3122 3366 
L 3122 2828 
Q 2878 2963 2633 3030 
Q 2388 3097 2138 3097 
Q 1578 3097 1268 2742 
Q 959 2388 959 1747 
Q 959 1106 1268 751 
Q 1578 397 2138 397 
Q 2388 397 2633 464 
Q 2878 531 3122 666 
L 3122 134 
Q 2881 22 2623 -34 
Q 2366 -91 2075 -91 
Q 1284 -91 818 406 
Q 353 903 353 1747 
Q 353 2603 823 3093 
Q 1294 3584 2113 3584 
Q 2378 3584 2631 3529 
Q 2884 3475 3122 3366 
z
" id="DejaVuSans-63" transform="scale(0.015625)"/>
      </defs>
      <use xlink:href="#DejaVuSans-50"/>
      <use x="60.302734" xlink:href="#DejaVuSans-79"/>
      <use x="119.482422" xlink:href="#DejaVuSans-74"/>
      <use x="158.691406" xlink:href="#DejaVuSans-68"/>
      <use x="222.070312" xlink:href="#DejaVuSans-6f"/>
      <use x="283.251953" xlink:href="#DejaVuSans-6e"/>
      <use x="346.630859" xlink:href="#DejaVuSans-20"/>
      <use x="378.417969" xlink:href="#DejaVuSans-47"/>
      <use x="455.908203" xlink:href="#DejaVuSans-50"/>
      <use x="516.210938" xlink:href="#DejaVuSans-55"/>
      <use x="589.404297" xlink:href="#DejaVuSans-20"/>
      <use x="621.191406" xlink:href="#DejaVuSans-50"/>
      <use x="681.494141" xlink:href="#DejaVuSans-79"/>
      <use x="740.673828" xlink:href="#DejaVuSans-74"/>
      <use x="779.882812" xlink:href="#DejaVuSans-6f"/>
      <use x="841.064453" xlink:href="#DejaVuSans-72"/>
      <use x="879.927734" xlink:href="#DejaVuSans-63"/>
      <use x="934.908203" xlink:href="#DejaVuSans-68"/>
     </g>
    </g>
   </g>
  </g>
 </g>
 <defs>
  <clipPath id="p394306257a">
   <rect height="652.32" width="669.6" x="108" y="103.68"/>
  </clipPath>
 </defs>
</svg>
